{"hash":"4931fa168c3524a2f436d2eaa9396372f3e07a58","data":{"tag":{"title":"tag6","path":"/tags/tag6/","belongsTo":{"totalCount":4,"pageInfo":{"totalPages":2,"currentPage":2},"edges":[{"node":{"id":"dfe16f1ba4ce12c0690550ced14a9dbe","title":"Suos novi data gente edaci custodia canes","image":{"type":"image","mimeType":"image/jpeg","src":"/assets/static/riccardo-chiarini-2VDa8bnLM8c-unsplash.4250cd3.86bf9cf7a2a18df26577e28a8845f52b.jpg","size":{"width":800,"height":534},"sizes":"(max-width: 800px) 100vw, 800px","srcset":["/assets/static/riccardo-chiarini-2VDa8bnLM8c-unsplash.1b91758.86bf9cf7a2a18df26577e28a8845f52b.jpg 480w","/assets/static/riccardo-chiarini-2VDa8bnLM8c-unsplash.4250cd3.86bf9cf7a2a18df26577e28a8845f52b.jpg 800w"],"dataUri":"data:image/svg+xml,%3csvg fill='none' viewBox='0 0 800 534' xmlns='http://www.w3.org/2000/svg' xmlns:xlink='http://www.w3.org/1999/xlink'%3e%3cdefs%3e%3cfilter id='__svg-blur-d456d20c3c35830840469cd210e8db0f'%3e%3cfeGaussianBlur in='SourceGraphic' stdDeviation='40'/%3e%3c/filter%3e%3c/defs%3e%3cimage x='0' y='0' filter='url(%23__svg-blur-d456d20c3c35830840469cd210e8db0f)' width='800' height='534' xlink:href='data:image/jpeg%3bbase64%2c/9j/2wBDAAYEBQYFBAYGBQYHBwYIChAKCgkJChQODwwQFxQYGBcUFhYaHSUfGhsjHBYWICwgIyYnKSopGR8tMC0oMCUoKSj/2wBDAQcHBwoIChMKChMoGhYaKCgoKCgoKCgoKCgoKCgoKCgoKCgoKCgoKCgoKCgoKCgoKCgoKCgoKCgoKCgoKCgoKCj/wAARCAArAEADASIAAhEBAxEB/8QAGgAAAwEBAQEAAAAAAAAAAAAABAUGAwcCAP/EADIQAAIBAgUCBQIEBwEAAAAAAAECAwQRAAUGEiExQRMUIlFhB3EjMoGhFRdCQ1KRwdH/xAAZAQADAQEBAAAAAAAAAAAAAAACAwQAAQX/xAAmEQABBAEDAwQDAAAAAAAAAAABAAIDEQQSITEFExQVQWGhcYHh/9oADAMBAAIRAxEAPwDucG2iqzTz1sEcwBYr4gHHzfHmSso3Z/LZrTK5G7aZVF/3xzJHjrcvBpav8NIXmZpFD7luO/t1wNUbaspSRVixSPH4hVEB43FTe/fpiMdVh97H6T/GKsMx1XBTVKQRSvVSM226PtS/wT16YyqdaTwRL4NHutYOzy3C378dsQeY%2bFl4D1Fd6InVpN0dyvUbr/e4t84OTO8oy8iKQSkAC4Qj1HkXPHycN9QicBR%2bisIK5VxXawg8cLlz%2bdbaTLuugiPS3yQeuB49YT%2bZeN8scpzYKTusLc%2bx98RGZamyXL5pmEbzSC99rgb2K3s3z349jjGm19QGnnWPLpZJ7DY3jcDi9/cDn9sF5cfIKHtLpp1NTq6iOCokUqGLNZFHx84zoNambNfJximtYXAViFPsW9/k44nmes8yqp5J1/h9PGx3BEYttAFrdfgn74Qrn1dl4NMa3yvjG6NALlr9z3PTGOU0jblDorhVWjNP54MlzKCWGtgqXV6dFcLdSygg7d1xxfj5GHtJpnN4ZqjYiy3cTIwIUxkFW8Pk9PzYMyTWzVdNPPmflUdVMgWNdvpF%2b/O7r0xqdV001SZ4pqkNEdrKsojj3MVG0i3NvfHj9kSOu/pUOnjYNyp76h6b1JWq60OX%2bLDMJlYpIoJBuUFib98SdZo/U5ED01BOkQ9Lxt%2bZV5FupvwcWutdSVUXmPL5lFBGu8sqrcgX457dO2IrPNY53K%2b6PN5grNubaNtxyenbpijHw5CwaSK%2bVDP1OBjy0gk/jZIc20lqear3tlNYBfn0/pe%2bCcg0dqghjLltSsbMqq4Kg7Qu29r344OFlZqnPoqixzbMLm3WQ255A/XBWV/UDUcYCNmdQ8YIIBVSbWva9u%2bKnYz9NAhC3OjJstK9U2iNQUsyLU0FWu3cCyqJAQW9JIv8nFPJovPJdOxqtGz1cMsbRllKNsDc2v8AHbEtB9QNSzSjxMxqNpJuqhRax4HTFF/MDU6ZKBFX%2bHMXTw%2bFJ2356j246YB%2bNNYJIRtzod7tH5Bke%2bGWZ2ALxMqb3Frt6b9eDz0wVl%2bnqepXxzWxAo4RkUFtxuCWHuRyB74kdKk1ESmdmchm6nj8o/8ATizyH8Rm382jFu3cj/mOQws2sJj2ki0ozfKKxKgr4YmgZ9xZI77hzwRhbWxAhhUQb2sNpZbbQe%2bHWoHcVyRK7CNluQCRfAVCT5yReqiMGx5xZoaKoKbxtW5KwzzKRSxb60wzwyqpBi/t2tZT7WH%2b8LYMmojMTDTznd6VUG3P3w5zJ3SCp2uws6keo/4qcZBiq0ZBPMl%2bvyMGHAhMGJGW6Xc/xfZ1lMchE09ModgSWjYcm3cDvhbRwpUzJTzLZdgKyWIK8dLW5w41BI4pfEB9asbH78HGWXzyw0lLNFIyyiUJuB/pI5GEukBBaE6OFrWUBueV/9k=' /%3e%3c/svg%3e"},"path":"/posts/suos-novi-data-gente-edaci-custodia-canes/","timeToRead":1,"featured":false,"humanTime":"29 Jul 2019","datetime":"2019-07-29T00:00:00.000Z","category":{"id":"Digital","title":"Digital","path":"/category/digital/"},"author":[{"id":"jorisheus","name":"Joris Heus","image":{"type":"image","mimeType":"image/jpeg","src":"/assets/static/jorisheus.dea1acb.5b6df044254e688965fd43af7b35308a.jpg","size":{"width":64,"height":64},"sizes":"(max-width: 64px) 100vw, 64px","srcset":["/assets/static/jorisheus.dea1acb.5b6df044254e688965fd43af7b35308a.jpg 64w"],"dataUri":"data:image/svg+xml,%3csvg fill='none' viewBox='0 0 64 64' xmlns='http://www.w3.org/2000/svg' xmlns:xlink='http://www.w3.org/1999/xlink'%3e%3cdefs%3e%3cfilter id='__svg-blur-83558f8db613ebb06851a0caedeef613'%3e%3cfeGaussianBlur in='SourceGraphic' stdDeviation='40'/%3e%3c/filter%3e%3c/defs%3e%3cimage x='0' y='0' filter='url(%23__svg-blur-83558f8db613ebb06851a0caedeef613)' width='64' height='64' xlink:href='data:image/jpeg%3bbase64%2c/9j/2wBDAAYEBQYFBAYGBQYHBwYIChAKCgkJChQODwwQFxQYGBcUFhYaHSUfGhsjHBYWICwgIyYnKSopGR8tMC0oMCUoKSj/2wBDAQcHBwoIChMKChMoGhYaKCgoKCgoKCgoKCgoKCgoKCgoKCgoKCgoKCgoKCgoKCgoKCgoKCgoKCgoKCgoKCgoKCj/wAARCABAAEADASIAAhEBAxEB/8QAHAAAAgIDAQEAAAAAAAAAAAAABgcEBQIDCAEA/8QAMhAAAgEDAgQDBgUFAAAAAAAAAQIDAAQRBQYSITFBEyJRBxQyYXGRUnKBocEkYrGy0f/EABUBAQEAAAAAAAAAAAAAAAAAAAAB/8QAFBEBAAAAAAAAAAAAAAAAAAAAAP/aAAwDAQACEQMRAD8Ak%2b1/XNum3j9wkt3uQRloAOf2pMTao8qGCKYmOWVWZc9xnFDUchDebLA/Ojja20YNUsVvZJ7iJQ%2bDJHFxpH38/PIHzGfWoGJtPUHlhjjl5DAB9KZenKOFSTgUr9kWzTW00KcJmidoweoyDjr6VcT2u5pYLuOOC0YquEeadgXOemF%2bGgZrOnDjioc3QI20y8YOuUhc4z/aahbN0e%2bsbUx6tcB5XUkLGTwj6Z50Na3t3VJb51huLWSOZGDmVHMnPOApzj07VQkYdSRNBjhBBBuOP9M5p/7XMLaJC0AABjB5Vzc1p4emoznEqycJX0IPOuhtgKRtuHP4P4oFPLtyztdO95nmHTOKtfZZrlpbbguNEmPHp%2bpp4YDHADgHl%2boyPtQfrvva2gSSTMYHJcmqTTITM3lYhhzBBwRUU%2btryiy1zUFj4FRbt1KqMKOg5famedTghtRI6q0jclHcmufNj38llMbe8zl%2bFwzHJIPQ0cQ6tb65rEWm3E0kMUMZAeI4JYkYPP5UBRdb80mx1VLfVpntZVbr4RMZB6Hj6ferDS9x2OqSSyae5ktxIUDEEeb5A9vnVBJt7S7d1kvpbm4cDhBZFcHnn8NC%2b9GtdqJBqdhcXQmZmKxMQEI4epGOucVUKHc00T67qBi5Rm9lIA9OM10HsR1k25EydClczScUirK5Jd34mPqSeddMezdAu14PyUC63Ztq1g0iSRZy0ijkCag%2bzD2b6puCNr%2b6VrLSe0zr5pfyL3%2bvT609NvbEtlRZ9dRLmXkVgzlF%2bvr/AIoxuAsdqygKiAYAAwAP4oEpvjaK29xavYq0amFVjdfiVkHD%2b4x9qWslxqmmalbyywNwwHHFGMBh/wA9a6P1S70rUoktLXUbKW%2bjPiJCkyliB1wM8%2bWaG9Q28J%2bYjAPcYqAS0vfsLKiytJ4mMZUEnPpirvTtqRb80q5m1d57MO39NwEEgfiYHr6Yqbb7baNQEVRKeSkL0NF2g2VxZWFrb2fhEokcbNJnGB8R5d/SgSuo%2bxPWbG6jEM8V/YA544xwyL9VP8GmHtS3On6Q9tIrK0QK4YYNM5B1B6itN1bQ3EbLPGrgjGe/3qiSo8vzrReW8V3A8FwgeKRSrKehHpW2CUSIGHf9q9PU0A5d7U02WOLwLaKCaBg8EsaANEw6EVivv1u3BqFusydriAf7L2/SiUV4elBVWcceTK/IDkuR3NTrSDwY1GST6msoVVmdgOYYj6VvFB8R5s1i3T6VsNRZpCJApIDH4Seh%2bVB//9k=' /%3e%3c/svg%3e"},"path":"/author/joris-heus/"}]}}]}}},"context":{}}