{"hash":"4931fa168c3524a2f436d2eaa9396372f3e07a58","data":{"tag":{"title":"tag5","path":"/tags/tag5/","belongsTo":{"totalCount":4,"pageInfo":{"totalPages":2,"currentPage":1},"edges":[{"node":{"id":"09e43f5ddbec6d18f92be0503603d6e0","title":"Iter vultus quidem pariter caligine inane hanc","image":{"type":"image","mimeType":"image/jpeg","src":"/assets/static/sergio-souza-WU6K3Lmq9ok-unsplash.4250cd3.e9c11d9be676eaa6a873b3cbb0b8bd35.jpg","size":{"width":800,"height":450},"sizes":"(max-width: 800px) 100vw, 800px","srcset":["/assets/static/sergio-souza-WU6K3Lmq9ok-unsplash.1b91758.e9c11d9be676eaa6a873b3cbb0b8bd35.jpg 480w","/assets/static/sergio-souza-WU6K3Lmq9ok-unsplash.4250cd3.e9c11d9be676eaa6a873b3cbb0b8bd35.jpg 800w"],"dataUri":"data:image/svg+xml,%3csvg fill='none' viewBox='0 0 800 450' xmlns='http://www.w3.org/2000/svg' xmlns:xlink='http://www.w3.org/1999/xlink'%3e%3cdefs%3e%3cfilter id='__svg-blur-62beca3bd92774ccb8a08a2f007ba213'%3e%3cfeGaussianBlur in='SourceGraphic' stdDeviation='40'/%3e%3c/filter%3e%3c/defs%3e%3cimage x='0' y='0' filter='url(%23__svg-blur-62beca3bd92774ccb8a08a2f007ba213)' width='800' height='450' xlink:href='data:image/jpeg%3bbase64%2c/9j/2wBDAAYEBQYFBAYGBQYHBwYIChAKCgkJChQODwwQFxQYGBcUFhYaHSUfGhsjHBYWICwgIyYnKSopGR8tMC0oMCUoKSj/2wBDAQcHBwoIChMKChMoGhYaKCgoKCgoKCgoKCgoKCgoKCgoKCgoKCgoKCgoKCgoKCgoKCgoKCgoKCgoKCgoKCgoKCj/wAARCAAkAEADASIAAhEBAxEB/8QAGwAAAgMBAQEAAAAAAAAAAAAABQYABAcDCAL/xAAtEAACAQMDAwMEAQUBAAAAAAABAgMEBREAEiEGMUETUYEUIjJhcQcVQpGx0f/EABgBAAMBAQAAAAAAAAAAAAAAAAECAwQA/8QAHREBAAMAAgMBAAAAAAAAAAAAAQACEQMhEjEyUf/aAAwDAQACEQMRAD8AyL6Gw1LiKGeQuB%2bZVjk/JHHxppoOhIrhb4oqC5UUU0sgTa8JTH7MnOBrM6dmppVZ4/U9gWx/zRpOpbnLNDDEzwRMyqTGcEDPudZ8M7iVbD0yj1F0tV2q8VdDUGGKenk9ORcscH37dv8A3Q31au1boZUQA8lScFx760zq2jSmttDX1VM8LPG9OVJZ95HKliQCcqe4zyuhVfHZpXeGff6iRqkW6NJBKvghs5U4P%2b%2bPGgW/ZQibB1FUw1EUkVPTRrHj7Vj74/ZydOXTvUdNPCYKOP0alsu6uFOSe5UcZ8d%2bdU6G02J0iWqhlcZ2SSRfYobsOT298kY7aqVtqhp6kra6UQ1fBjeSrIKAc7hjgjHkaV8WXo3O82MMdXXVVaZYKpVZyAVip0bHHsRozNX9QpSwel9GUUnJnpVjY475YYHnWWSy3%2bjlaVpq6NnwrPG5wcdhlePjVMzTVNQ0lXLJLK53M0jElj7nOgcWxr8udAk7tG9RArlNse8Jvc4Gf50TpI5YJgYGjlqKj8EB4OM5I8HsfnTrTmltvT8lt6g%2bqp6KVzHJWUUKiSGTI4YEjKlRg49ux0p362JYuopLXFFUSUT7Vpah2AEikAh1YDBU5yCO2eedNuzJ1GOyXae8W240VxuC19bSwLVRiXcVf0TjZuPJ%2b0njjSbfL3N64jUU20cqI0GArZbaT3Pfz7DTjaqKeyWetvc9O8rwU8qICRkgqEBbzjL5zjnGsqcsWJckseST511AVlUwJ3kq6iTAaeUgAADcfHb/AINXKO81sEXovIKinzkwz/cvx5X4I0L19L31RBilk9Rys1/heWWNqZUkkhIDmTLtIPxG4nBH6I9%2bdB6mrrzNLFWu4lz9yMBxoWq50y9Ix01fcIrXXxb46thFHMvEkEh4Ug%2bV7AqfjnSIV22Spa3JlFlv%2boN/uN9r1/uM%2b9YBsRVUKvHG4gcbj5OqPTYCv6h%2b4hkADcgDcDx7dvGpqaB8TPzemejuj7HQXa33yqukP1c%2b2RVaU52oDgIMf48k49/4GvMXU1DDQ3CeCANtjldQWOTgHA1NTQr9RKq5AeuijU1NWlZYi86M2OQwVDyxgeoi5ViPxORyP3qamgwW9T//2Q==' /%3e%3c/svg%3e"},"path":"/posts/iter-vultus-quidem-pariter-caligine-inane-hanc/","timeToRead":1,"featured":true,"humanTime":"31 Oct 2019","datetime":"2019-10-31T00:00:00.000Z","category":{"id":"Business","title":"Business","path":"/category/business/"},"author":[{"id":"jorisheus","name":"Joris Heus","image":{"type":"image","mimeType":"image/jpeg","src":"/assets/static/jorisheus.dea1acb.5b6df044254e688965fd43af7b35308a.jpg","size":{"width":64,"height":64},"sizes":"(max-width: 64px) 100vw, 64px","srcset":["/assets/static/jorisheus.dea1acb.5b6df044254e688965fd43af7b35308a.jpg 64w"],"dataUri":"data:image/svg+xml,%3csvg fill='none' viewBox='0 0 64 64' xmlns='http://www.w3.org/2000/svg' xmlns:xlink='http://www.w3.org/1999/xlink'%3e%3cdefs%3e%3cfilter id='__svg-blur-83558f8db613ebb06851a0caedeef613'%3e%3cfeGaussianBlur in='SourceGraphic' stdDeviation='40'/%3e%3c/filter%3e%3c/defs%3e%3cimage x='0' y='0' filter='url(%23__svg-blur-83558f8db613ebb06851a0caedeef613)' width='64' height='64' xlink:href='data:image/jpeg%3bbase64%2c/9j/2wBDAAYEBQYFBAYGBQYHBwYIChAKCgkJChQODwwQFxQYGBcUFhYaHSUfGhsjHBYWICwgIyYnKSopGR8tMC0oMCUoKSj/2wBDAQcHBwoIChMKChMoGhYaKCgoKCgoKCgoKCgoKCgoKCgoKCgoKCgoKCgoKCgoKCgoKCgoKCgoKCgoKCgoKCgoKCj/wAARCABAAEADASIAAhEBAxEB/8QAHAAAAgIDAQEAAAAAAAAAAAAABgcEBQIDCAEA/8QAMhAAAgEDAgQDBgUFAAAAAAAAAQIDAAQRBQYSITFBEyJRBxQyYXGRUnKBocEkYrGy0f/EABUBAQEAAAAAAAAAAAAAAAAAAAAB/8QAFBEBAAAAAAAAAAAAAAAAAAAAAP/aAAwDAQACEQMRAD8Ak%2b1/XNum3j9wkt3uQRloAOf2pMTao8qGCKYmOWVWZc9xnFDUchDebLA/Ojja20YNUsVvZJ7iJQ%2bDJHFxpH38/PIHzGfWoGJtPUHlhjjl5DAB9KZenKOFSTgUr9kWzTW00KcJmidoweoyDjr6VcT2u5pYLuOOC0YquEeadgXOemF%2bGgZrOnDjioc3QI20y8YOuUhc4z/aahbN0e%2bsbUx6tcB5XUkLGTwj6Z50Na3t3VJb51huLWSOZGDmVHMnPOApzj07VQkYdSRNBjhBBBuOP9M5p/7XMLaJC0AABjB5Vzc1p4emoznEqycJX0IPOuhtgKRtuHP4P4oFPLtyztdO95nmHTOKtfZZrlpbbguNEmPHp%2bpp4YDHADgHl%2boyPtQfrvva2gSSTMYHJcmqTTITM3lYhhzBBwRUU%2btryiy1zUFj4FRbt1KqMKOg5famedTghtRI6q0jclHcmufNj38llMbe8zl%2bFwzHJIPQ0cQ6tb65rEWm3E0kMUMZAeI4JYkYPP5UBRdb80mx1VLfVpntZVbr4RMZB6Hj6ferDS9x2OqSSyae5ktxIUDEEeb5A9vnVBJt7S7d1kvpbm4cDhBZFcHnn8NC%2b9GtdqJBqdhcXQmZmKxMQEI4epGOucVUKHc00T67qBi5Rm9lIA9OM10HsR1k25EydClczScUirK5Jd34mPqSeddMezdAu14PyUC63Ztq1g0iSRZy0ijkCag%2bzD2b6puCNr%2b6VrLSe0zr5pfyL3%2bvT609NvbEtlRZ9dRLmXkVgzlF%2bvr/AIoxuAsdqygKiAYAAwAP4oEpvjaK29xavYq0amFVjdfiVkHD%2b4x9qWslxqmmalbyywNwwHHFGMBh/wA9a6P1S70rUoktLXUbKW%2bjPiJCkyliB1wM8%2bWaG9Q28J%2bYjAPcYqAS0vfsLKiytJ4mMZUEnPpirvTtqRb80q5m1d57MO39NwEEgfiYHr6Yqbb7baNQEVRKeSkL0NF2g2VxZWFrb2fhEokcbNJnGB8R5d/SgSuo%2bxPWbG6jEM8V/YA544xwyL9VP8GmHtS3On6Q9tIrK0QK4YYNM5B1B6itN1bQ3EbLPGrgjGe/3qiSo8vzrReW8V3A8FwgeKRSrKehHpW2CUSIGHf9q9PU0A5d7U02WOLwLaKCaBg8EsaANEw6EVivv1u3BqFusydriAf7L2/SiUV4elBVWcceTK/IDkuR3NTrSDwY1GST6msoVVmdgOYYj6VvFB8R5s1i3T6VsNRZpCJApIDH4Seh%2bVB//9k=' /%3e%3c/svg%3e"},"path":"/author/joris-heus/"}]}},{"node":{"id":"0374c0488a7bd6ce0c5d1283f4c12e22","title":"Aera exspatiantur impete inplumes plebe capillos est","image":{"type":"image","mimeType":"image/jpeg","src":"/assets/static/stephan-cassara-KnAIsBuitGg-unsplash.4250cd3.51d6e3768bd2c7f3161aed45ed04cb37.jpg","size":{"width":800,"height":533},"sizes":"(max-width: 800px) 100vw, 800px","srcset":["/assets/static/stephan-cassara-KnAIsBuitGg-unsplash.1b91758.51d6e3768bd2c7f3161aed45ed04cb37.jpg 480w","/assets/static/stephan-cassara-KnAIsBuitGg-unsplash.4250cd3.51d6e3768bd2c7f3161aed45ed04cb37.jpg 800w"],"dataUri":"data:image/svg+xml,%3csvg fill='none' viewBox='0 0 800 533' xmlns='http://www.w3.org/2000/svg' xmlns:xlink='http://www.w3.org/1999/xlink'%3e%3cdefs%3e%3cfilter id='__svg-blur-c5c27913ea083ab3f6e56507f15bd7d8'%3e%3cfeGaussianBlur in='SourceGraphic' stdDeviation='40'/%3e%3c/filter%3e%3c/defs%3e%3cimage x='0' y='0' filter='url(%23__svg-blur-c5c27913ea083ab3f6e56507f15bd7d8)' width='800' height='533' xlink:href='data:image/jpeg%3bbase64%2c/9j/2wBDAAYEBQYFBAYGBQYHBwYIChAKCgkJChQODwwQFxQYGBcUFhYaHSUfGhsjHBYWICwgIyYnKSopGR8tMC0oMCUoKSj/2wBDAQcHBwoIChMKChMoGhYaKCgoKCgoKCgoKCgoKCgoKCgoKCgoKCgoKCgoKCgoKCgoKCgoKCgoKCgoKCgoKCgoKCj/wAARCAArAEADASIAAhEBAxEB/8QAGwAAAgMBAQEAAAAAAAAAAAAABAUDBgcCAQD/xAAyEAACAQMCAwYDCAMAAAAAAAABAgMABBEFIRIxYQYTFEFRgQcioSMyM0JxgsHRYpGx/8QAFwEBAQEBAAAAAAAAAAAAAAAAAwQCAP/EACQRAAEDAgYCAwAAAAAAAAAAAAEAAgMEERITITFBkQVRYbHR/9oADAMBAAIRAxEAPwBBb64ij8aMfuFGxdpVTbxMHuw/usYQTMwRFkkLHAwcb0Td8MdvBKQikkjIc4kwBy/39apJYd1GIpBstpj7WMvK4gP7h/dGQdt5o1yrQsPUb/zWAPerJKmGOxwvlketWns/DfMLcWih7efLsJduIKSrAfNzGOnlWHMj5C2M0bFbNb/Edo/vRxH3xR8PxQAxxQR%2bz1m09hbhiYkxnrmoPAjyFYNLE5c2umb66WuL8VIAB9h%2buSDXUfxWUE8UKkeWBy%2btY/4I55/SvjZleTE%2b1CaCE%2b%2b048lNy0dKhSX8EhSePjBLiR1O44x5jp/yvdXltmW1gtomkEcTBHLZBLPnlttwgDFAag7nT4iYI40iXu1fvA253OfTPShlv5JoZGlP4cAiTfI4QetOWgnXhcCRsutQ7rgM0aOrK3diMyfdAAwAPc%2bdNdMt7iNIX8R3avG8wHExVAAM8WOR69Rzpdp7NdzpGq8aGUEvgMFyMH33q12cCRaXqkkM0k0ENskCsflLZnXOR%2bi0VTJlxlw%2bB2QFuFmJ4BXmh6xq91IY4pBPCoGJrjCjG2RnGSetWeWcxoD4y1Zsbrhsg%2bxqkXs/gblrYAhU2ChuXSo11NV3GBTsjxAOBUcsuElpaNFd47sFgXdCPMKD/NStOpG5IHpVLi1bP5qnXVcn82fWlLEIddVi8e3EUIUzSR54%2bJsAEgYwAN6FcOLiUMrwo%2bwXIJxzx%2bld2EaNNOrKCqJlQd8bUf2UjWbWY4pRxRs8YIPoXGR9aCxCuuDoptC7mee1jM8iyk/KFUKo2JO3rkUzd/DdktYmLHNzOsEe%2bNo24icdSfpTHSbeFNV10LEmEurgLtnhALYxSm/dp%2bwYEpLCCRlj/wAR3rVHXE2jHBcP37snprXd7AKWdoJpZJWeaUtcIfn%2bzCbNuOXPcmk3ft60z7TkrfAgnMlrEW6nl/FI6qpn3iaVPURjMKNS4YcjU0d0w86W5rtSfWqQ8qcxhf/Z' /%3e%3c/svg%3e"},"path":"/posts/aera-exspatiantur-impete-inplumes-plebe-capillos-est/","timeToRead":1,"featured":false,"humanTime":"11 Nov 2019","datetime":"2019-11-11T00:00:00.000Z","category":{"id":"Digital","title":"Digital","path":"/category/digital/"},"author":[{"id":"jorisheus","name":"Joris Heus","image":{"type":"image","mimeType":"image/jpeg","src":"/assets/static/jorisheus.dea1acb.5b6df044254e688965fd43af7b35308a.jpg","size":{"width":64,"height":64},"sizes":"(max-width: 64px) 100vw, 64px","srcset":["/assets/static/jorisheus.dea1acb.5b6df044254e688965fd43af7b35308a.jpg 64w"],"dataUri":"data:image/svg+xml,%3csvg fill='none' viewBox='0 0 64 64' xmlns='http://www.w3.org/2000/svg' xmlns:xlink='http://www.w3.org/1999/xlink'%3e%3cdefs%3e%3cfilter id='__svg-blur-83558f8db613ebb06851a0caedeef613'%3e%3cfeGaussianBlur in='SourceGraphic' stdDeviation='40'/%3e%3c/filter%3e%3c/defs%3e%3cimage x='0' y='0' filter='url(%23__svg-blur-83558f8db613ebb06851a0caedeef613)' width='64' height='64' xlink:href='data:image/jpeg%3bbase64%2c/9j/2wBDAAYEBQYFBAYGBQYHBwYIChAKCgkJChQODwwQFxQYGBcUFhYaHSUfGhsjHBYWICwgIyYnKSopGR8tMC0oMCUoKSj/2wBDAQcHBwoIChMKChMoGhYaKCgoKCgoKCgoKCgoKCgoKCgoKCgoKCgoKCgoKCgoKCgoKCgoKCgoKCgoKCgoKCgoKCj/wAARCABAAEADASIAAhEBAxEB/8QAHAAAAgIDAQEAAAAAAAAAAAAABgcEBQIDCAEA/8QAMhAAAgEDAgQDBgUFAAAAAAAAAQIDAAQRBQYSITFBEyJRBxQyYXGRUnKBocEkYrGy0f/EABUBAQEAAAAAAAAAAAAAAAAAAAAB/8QAFBEBAAAAAAAAAAAAAAAAAAAAAP/aAAwDAQACEQMRAD8Ak%2b1/XNum3j9wkt3uQRloAOf2pMTao8qGCKYmOWVWZc9xnFDUchDebLA/Ojja20YNUsVvZJ7iJQ%2bDJHFxpH38/PIHzGfWoGJtPUHlhjjl5DAB9KZenKOFSTgUr9kWzTW00KcJmidoweoyDjr6VcT2u5pYLuOOC0YquEeadgXOemF%2bGgZrOnDjioc3QI20y8YOuUhc4z/aahbN0e%2bsbUx6tcB5XUkLGTwj6Z50Na3t3VJb51huLWSOZGDmVHMnPOApzj07VQkYdSRNBjhBBBuOP9M5p/7XMLaJC0AABjB5Vzc1p4emoznEqycJX0IPOuhtgKRtuHP4P4oFPLtyztdO95nmHTOKtfZZrlpbbguNEmPHp%2bpp4YDHADgHl%2boyPtQfrvva2gSSTMYHJcmqTTITM3lYhhzBBwRUU%2btryiy1zUFj4FRbt1KqMKOg5famedTghtRI6q0jclHcmufNj38llMbe8zl%2bFwzHJIPQ0cQ6tb65rEWm3E0kMUMZAeI4JYkYPP5UBRdb80mx1VLfVpntZVbr4RMZB6Hj6ferDS9x2OqSSyae5ktxIUDEEeb5A9vnVBJt7S7d1kvpbm4cDhBZFcHnn8NC%2b9GtdqJBqdhcXQmZmKxMQEI4epGOucVUKHc00T67qBi5Rm9lIA9OM10HsR1k25EydClczScUirK5Jd34mPqSeddMezdAu14PyUC63Ztq1g0iSRZy0ijkCag%2bzD2b6puCNr%2b6VrLSe0zr5pfyL3%2bvT609NvbEtlRZ9dRLmXkVgzlF%2bvr/AIoxuAsdqygKiAYAAwAP4oEpvjaK29xavYq0amFVjdfiVkHD%2b4x9qWslxqmmalbyywNwwHHFGMBh/wA9a6P1S70rUoktLXUbKW%2bjPiJCkyliB1wM8%2bWaG9Q28J%2bYjAPcYqAS0vfsLKiytJ4mMZUEnPpirvTtqRb80q5m1d57MO39NwEEgfiYHr6Yqbb7baNQEVRKeSkL0NF2g2VxZWFrb2fhEokcbNJnGB8R5d/SgSuo%2bxPWbG6jEM8V/YA544xwyL9VP8GmHtS3On6Q9tIrK0QK4YYNM5B1B6itN1bQ3EbLPGrgjGe/3qiSo8vzrReW8V3A8FwgeKRSrKehHpW2CUSIGHf9q9PU0A5d7U02WOLwLaKCaBg8EsaANEw6EVivv1u3BqFusydriAf7L2/SiUV4elBVWcceTK/IDkuR3NTrSDwY1GST6msoVVmdgOYYj6VvFB8R5s1i3T6VsNRZpCJApIDH4Seh%2bVB//9k=' /%3e%3c/svg%3e"},"path":"/author/joris-heus/"}]}},{"node":{"id":"a5d3fde5bb3d0e2c4dd51812100e81ec","title":"Temptabat volumina","image":{"type":"image","mimeType":"image/jpeg","src":"/assets/static/phoenix-han-Nqdh0G8rdCc-unsplash.4250cd3.d3d4dda88fb04b627d579ee7209f1912.jpg","size":{"width":800,"height":450},"sizes":"(max-width: 800px) 100vw, 800px","srcset":["/assets/static/phoenix-han-Nqdh0G8rdCc-unsplash.1b91758.d3d4dda88fb04b627d579ee7209f1912.jpg 480w","/assets/static/phoenix-han-Nqdh0G8rdCc-unsplash.4250cd3.d3d4dda88fb04b627d579ee7209f1912.jpg 800w"],"dataUri":"data:image/svg+xml,%3csvg fill='none' viewBox='0 0 800 450' xmlns='http://www.w3.org/2000/svg' xmlns:xlink='http://www.w3.org/1999/xlink'%3e%3cdefs%3e%3cfilter id='__svg-blur-d5ad8948ef5a469e5c81070ab91006cc'%3e%3cfeGaussianBlur in='SourceGraphic' stdDeviation='40'/%3e%3c/filter%3e%3c/defs%3e%3cimage x='0' y='0' filter='url(%23__svg-blur-d5ad8948ef5a469e5c81070ab91006cc)' width='800' height='450' xlink:href='data:image/jpeg%3bbase64%2c/9j/2wBDAAYEBQYFBAYGBQYHBwYIChAKCgkJChQODwwQFxQYGBcUFhYaHSUfGhsjHBYWICwgIyYnKSopGR8tMC0oMCUoKSj/2wBDAQcHBwoIChMKChMoGhYaKCgoKCgoKCgoKCgoKCgoKCgoKCgoKCgoKCgoKCgoKCgoKCgoKCgoKCgoKCgoKCgoKCj/wAARCAAkAEADASIAAhEBAxEB/8QAGgAAAwEBAQEAAAAAAAAAAAAAAAQFBgIDAf/EADMQAAIBAwIEBAQDCQAAAAAAAAECAwAEEQUhEhMxQSIyUWEGFHHBgbHRFSMzUmKR4fDx/8QAGQEAAgMBAAAAAAAAAAAAAAAAAgMAAQQF/8QAIhEAAgIBAwQDAAAAAAAAAAAAAAECEQMSMkEEEyExInGR/9oADAMBAAIRAxEAPwCJqwVbGcLFHaSjzIhy3CBkgbe3b3qjods9rbwJLCFd35uBttgAAj1OP9zWV%2bdvNWlll/h42LAYPUZ3z7n9K0ulXl7dq8Nnbh5JWVYyvmVcd/XYZyelcqaemjnxeuV8s5nguYtURmaSSGTw8OMqMHuO34H1pwWdvbGSYeMyFWKyKG3XcYyAabtPhe9ubWWRtZspZxjgQzBxn0z0zSB0fUob8LfRSRsCHcMwwwAzkdiNu1CpJqrNMsWXGrr2d2l4o1CW4D5LEs6hRk9gfalNRniz%2b/cukuSynLBfbHvX25cS3kUgcOu4x0IX1z3r0u9Lu5bbmtbjk/zcJJz1H/KGUYp2wfP2ZhtPsbOJ5gHNoz8JilYEKTnBB79x9DS02k28lrC0CTJbs3EwDeKPHQg/aq8xw5t5YiIyeHgIG46eEkd6asLMXjfIgfLrGpVg58Y3OxGOpH39qYptK2JnFP0S7GF42WOzBdZCvEOIs0gbYAgZBOSSa1LSR6ZpwsbVoH1C5B%2bbdWzj%2bgHtvgY7kUhfanP8nytNEVlAAFYQ%2bb%2b43O1TNDM4Zb64XnmGdQQV77YB9c1UvkrYWNqDpfpRtLS7YSF1aNFyfH4QMD9ap6d8UX2nW0EDoJ4OLLQSDjyOgCntn1FenxFdPKsV2GTkSqrJB0w2%2bc46/wCKS0COxu4JnuS0kwJCRqeHh%2bh7/X2pTl4tmqa7MqxsqXWn8epRiyTNveDmxsF9T0H47H3FWtV1F4pFtbG6RLaIctUQ%2bc5ALN2O%2bah2es3unxNaCQcosOAOBlM9cOB3HU05OsFzFi0QlQu5UgHr1x6UEm7T4LjNedPItPa6bfwPHdRtFK53aHdQSfMFPf6VxbaOtnOsllL%2b0I%2bArzQuHGD5SO5GT7VZsNPeeOYCEkxISpbYSY7AUpzgI0lUGMrjAUYyPT8qksjrTwVlhprUjD6keXdy28QEcMcZIVRjJ4iPtVCGFU0CQElubGsz524mLD0oop09qMi9sQu2aK25Su/As7Yyc4wMD86rfAcaXGoOkq8WxIYk5GO1FFDk2MZHchnX8CKBgMEuw9qa0KGO5u44JkVoyMkEdfEAN/bFFFSGw09Ml3EbqLFlqt1Z2irDBEBhV77d81nfiiNFlimRQjOChC7DAO23rRRS2aOp2s//2Q==' /%3e%3c/svg%3e"},"path":"/posts/temptabat-volumina/","timeToRead":1,"featured":false,"humanTime":"05 May 2019","datetime":"2019-05-05T00:00:00.000Z","category":{"id":"Design","title":"Design","path":"/category/design/"},"author":[{"id":"jorisheus","name":"Joris Heus","image":{"type":"image","mimeType":"image/jpeg","src":"/assets/static/jorisheus.dea1acb.5b6df044254e688965fd43af7b35308a.jpg","size":{"width":64,"height":64},"sizes":"(max-width: 64px) 100vw, 64px","srcset":["/assets/static/jorisheus.dea1acb.5b6df044254e688965fd43af7b35308a.jpg 64w"],"dataUri":"data:image/svg+xml,%3csvg fill='none' viewBox='0 0 64 64' xmlns='http://www.w3.org/2000/svg' xmlns:xlink='http://www.w3.org/1999/xlink'%3e%3cdefs%3e%3cfilter id='__svg-blur-83558f8db613ebb06851a0caedeef613'%3e%3cfeGaussianBlur in='SourceGraphic' stdDeviation='40'/%3e%3c/filter%3e%3c/defs%3e%3cimage x='0' y='0' filter='url(%23__svg-blur-83558f8db613ebb06851a0caedeef613)' width='64' height='64' xlink:href='data:image/jpeg%3bbase64%2c/9j/2wBDAAYEBQYFBAYGBQYHBwYIChAKCgkJChQODwwQFxQYGBcUFhYaHSUfGhsjHBYWICwgIyYnKSopGR8tMC0oMCUoKSj/2wBDAQcHBwoIChMKChMoGhYaKCgoKCgoKCgoKCgoKCgoKCgoKCgoKCgoKCgoKCgoKCgoKCgoKCgoKCgoKCgoKCgoKCj/wAARCABAAEADASIAAhEBAxEB/8QAHAAAAgIDAQEAAAAAAAAAAAAABgcEBQIDCAEA/8QAMhAAAgEDAgQDBgUFAAAAAAAAAQIDAAQRBQYSITFBEyJRBxQyYXGRUnKBocEkYrGy0f/EABUBAQEAAAAAAAAAAAAAAAAAAAAB/8QAFBEBAAAAAAAAAAAAAAAAAAAAAP/aAAwDAQACEQMRAD8Ak%2b1/XNum3j9wkt3uQRloAOf2pMTao8qGCKYmOWVWZc9xnFDUchDebLA/Ojja20YNUsVvZJ7iJQ%2bDJHFxpH38/PIHzGfWoGJtPUHlhjjl5DAB9KZenKOFSTgUr9kWzTW00KcJmidoweoyDjr6VcT2u5pYLuOOC0YquEeadgXOemF%2bGgZrOnDjioc3QI20y8YOuUhc4z/aahbN0e%2bsbUx6tcB5XUkLGTwj6Z50Na3t3VJb51huLWSOZGDmVHMnPOApzj07VQkYdSRNBjhBBBuOP9M5p/7XMLaJC0AABjB5Vzc1p4emoznEqycJX0IPOuhtgKRtuHP4P4oFPLtyztdO95nmHTOKtfZZrlpbbguNEmPHp%2bpp4YDHADgHl%2boyPtQfrvva2gSSTMYHJcmqTTITM3lYhhzBBwRUU%2btryiy1zUFj4FRbt1KqMKOg5famedTghtRI6q0jclHcmufNj38llMbe8zl%2bFwzHJIPQ0cQ6tb65rEWm3E0kMUMZAeI4JYkYPP5UBRdb80mx1VLfVpntZVbr4RMZB6Hj6ferDS9x2OqSSyae5ktxIUDEEeb5A9vnVBJt7S7d1kvpbm4cDhBZFcHnn8NC%2b9GtdqJBqdhcXQmZmKxMQEI4epGOucVUKHc00T67qBi5Rm9lIA9OM10HsR1k25EydClczScUirK5Jd34mPqSeddMezdAu14PyUC63Ztq1g0iSRZy0ijkCag%2bzD2b6puCNr%2b6VrLSe0zr5pfyL3%2bvT609NvbEtlRZ9dRLmXkVgzlF%2bvr/AIoxuAsdqygKiAYAAwAP4oEpvjaK29xavYq0amFVjdfiVkHD%2b4x9qWslxqmmalbyywNwwHHFGMBh/wA9a6P1S70rUoktLXUbKW%2bjPiJCkyliB1wM8%2bWaG9Q28J%2bYjAPcYqAS0vfsLKiytJ4mMZUEnPpirvTtqRb80q5m1d57MO39NwEEgfiYHr6Yqbb7baNQEVRKeSkL0NF2g2VxZWFrb2fhEokcbNJnGB8R5d/SgSuo%2bxPWbG6jEM8V/YA544xwyL9VP8GmHtS3On6Q9tIrK0QK4YYNM5B1B6itN1bQ3EbLPGrgjGe/3qiSo8vzrReW8V3A8FwgeKRSrKehHpW2CUSIGHf9q9PU0A5d7U02WOLwLaKCaBg8EsaANEw6EVivv1u3BqFusydriAf7L2/SiUV4elBVWcceTK/IDkuR3NTrSDwY1GST6msoVVmdgOYYj6VvFB8R5s1i3T6VsNRZpCJApIDH4Seh%2bVB//9k=' /%3e%3c/svg%3e"},"path":"/author/joris-heus/"}]}}]}}},"context":{}}