{"hash":"4931fa168c3524a2f436d2eaa9396372f3e07a58","data":{"tag":{"title":"tag3","path":"/tags/tag3/","belongsTo":{"totalCount":5,"pageInfo":{"totalPages":2,"currentPage":1},"edges":[{"node":{"id":"09e43f5ddbec6d18f92be0503603d6e0","title":"Iter vultus quidem pariter caligine inane hanc","image":{"type":"image","mimeType":"image/jpeg","src":"/assets/static/sergio-souza-WU6K3Lmq9ok-unsplash.4250cd3.e9c11d9be676eaa6a873b3cbb0b8bd35.jpg","size":{"width":800,"height":450},"sizes":"(max-width: 800px) 100vw, 800px","srcset":["/assets/static/sergio-souza-WU6K3Lmq9ok-unsplash.1b91758.e9c11d9be676eaa6a873b3cbb0b8bd35.jpg 480w","/assets/static/sergio-souza-WU6K3Lmq9ok-unsplash.4250cd3.e9c11d9be676eaa6a873b3cbb0b8bd35.jpg 800w"],"dataUri":"data:image/svg+xml,%3csvg fill='none' viewBox='0 0 800 450' xmlns='http://www.w3.org/2000/svg' xmlns:xlink='http://www.w3.org/1999/xlink'%3e%3cdefs%3e%3cfilter id='__svg-blur-62beca3bd92774ccb8a08a2f007ba213'%3e%3cfeGaussianBlur in='SourceGraphic' stdDeviation='40'/%3e%3c/filter%3e%3c/defs%3e%3cimage x='0' y='0' filter='url(%23__svg-blur-62beca3bd92774ccb8a08a2f007ba213)' width='800' height='450' xlink:href='data:image/jpeg%3bbase64%2c/9j/2wBDAAYEBQYFBAYGBQYHBwYIChAKCgkJChQODwwQFxQYGBcUFhYaHSUfGhsjHBYWICwgIyYnKSopGR8tMC0oMCUoKSj/2wBDAQcHBwoIChMKChMoGhYaKCgoKCgoKCgoKCgoKCgoKCgoKCgoKCgoKCgoKCgoKCgoKCgoKCgoKCgoKCgoKCgoKCj/wAARCAAkAEADASIAAhEBAxEB/8QAGwAAAgMBAQEAAAAAAAAAAAAABQYABAcDCAL/xAAtEAACAQMDAwMEAQUBAAAAAAABAgMEBREAEiEGMUETUYEUIjJhcQcVQpGx0f/EABgBAAMBAQAAAAAAAAAAAAAAAAECAwQA/8QAHREBAAMAAgMBAAAAAAAAAAAAAQACEQMhEjEyUf/aAAwDAQACEQMRAD8AyL6Gw1LiKGeQuB%2bZVjk/JHHxppoOhIrhb4oqC5UUU0sgTa8JTH7MnOBrM6dmppVZ4/U9gWx/zRpOpbnLNDDEzwRMyqTGcEDPudZ8M7iVbD0yj1F0tV2q8VdDUGGKenk9ORcscH37dv8A3Q31au1boZUQA8lScFx760zq2jSmttDX1VM8LPG9OVJZ95HKliQCcqe4zyuhVfHZpXeGff6iRqkW6NJBKvghs5U4P%2b%2bPGgW/ZQibB1FUw1EUkVPTRrHj7Vj74/ZydOXTvUdNPCYKOP0alsu6uFOSe5UcZ8d%2bdU6G02J0iWqhlcZ2SSRfYobsOT298kY7aqVtqhp6kra6UQ1fBjeSrIKAc7hjgjHkaV8WXo3O82MMdXXVVaZYKpVZyAVip0bHHsRozNX9QpSwel9GUUnJnpVjY475YYHnWWSy3%2bjlaVpq6NnwrPG5wcdhlePjVMzTVNQ0lXLJLK53M0jElj7nOgcWxr8udAk7tG9RArlNse8Jvc4Gf50TpI5YJgYGjlqKj8EB4OM5I8HsfnTrTmltvT8lt6g%2bqp6KVzHJWUUKiSGTI4YEjKlRg49ux0p362JYuopLXFFUSUT7Vpah2AEikAh1YDBU5yCO2eedNuzJ1GOyXae8W240VxuC19bSwLVRiXcVf0TjZuPJ%2b0njjSbfL3N64jUU20cqI0GArZbaT3Pfz7DTjaqKeyWetvc9O8rwU8qICRkgqEBbzjL5zjnGsqcsWJckseST511AVlUwJ3kq6iTAaeUgAADcfHb/AINXKO81sEXovIKinzkwz/cvx5X4I0L19L31RBilk9Rys1/heWWNqZUkkhIDmTLtIPxG4nBH6I9%2bdB6mrrzNLFWu4lz9yMBxoWq50y9Ix01fcIrXXxb46thFHMvEkEh4Ug%2bV7AqfjnSIV22Spa3JlFlv%2boN/uN9r1/uM%2b9YBsRVUKvHG4gcbj5OqPTYCv6h%2b4hkADcgDcDx7dvGpqaB8TPzemejuj7HQXa33yqukP1c%2b2RVaU52oDgIMf48k49/4GvMXU1DDQ3CeCANtjldQWOTgHA1NTQr9RKq5AeuijU1NWlZYi86M2OQwVDyxgeoi5ViPxORyP3qamgwW9T//2Q==' /%3e%3c/svg%3e"},"path":"/posts/iter-vultus-quidem-pariter-caligine-inane-hanc/","timeToRead":1,"featured":true,"humanTime":"31 Oct 2019","datetime":"2019-10-31T00:00:00.000Z","category":{"id":"Business","title":"Business","path":"/category/business/"},"author":[{"id":"jorisheus","name":"Joris Heus","image":{"type":"image","mimeType":"image/jpeg","src":"/assets/static/jorisheus.dea1acb.5b6df044254e688965fd43af7b35308a.jpg","size":{"width":64,"height":64},"sizes":"(max-width: 64px) 100vw, 64px","srcset":["/assets/static/jorisheus.dea1acb.5b6df044254e688965fd43af7b35308a.jpg 64w"],"dataUri":"data:image/svg+xml,%3csvg fill='none' viewBox='0 0 64 64' xmlns='http://www.w3.org/2000/svg' xmlns:xlink='http://www.w3.org/1999/xlink'%3e%3cdefs%3e%3cfilter id='__svg-blur-83558f8db613ebb06851a0caedeef613'%3e%3cfeGaussianBlur in='SourceGraphic' stdDeviation='40'/%3e%3c/filter%3e%3c/defs%3e%3cimage x='0' y='0' filter='url(%23__svg-blur-83558f8db613ebb06851a0caedeef613)' width='64' height='64' xlink:href='data:image/jpeg%3bbase64%2c/9j/2wBDAAYEBQYFBAYGBQYHBwYIChAKCgkJChQODwwQFxQYGBcUFhYaHSUfGhsjHBYWICwgIyYnKSopGR8tMC0oMCUoKSj/2wBDAQcHBwoIChMKChMoGhYaKCgoKCgoKCgoKCgoKCgoKCgoKCgoKCgoKCgoKCgoKCgoKCgoKCgoKCgoKCgoKCgoKCj/wAARCABAAEADASIAAhEBAxEB/8QAHAAAAgIDAQEAAAAAAAAAAAAABgcEBQIDCAEA/8QAMhAAAgEDAgQDBgUFAAAAAAAAAQIDAAQRBQYSITFBEyJRBxQyYXGRUnKBocEkYrGy0f/EABUBAQEAAAAAAAAAAAAAAAAAAAAB/8QAFBEBAAAAAAAAAAAAAAAAAAAAAP/aAAwDAQACEQMRAD8Ak%2b1/XNum3j9wkt3uQRloAOf2pMTao8qGCKYmOWVWZc9xnFDUchDebLA/Ojja20YNUsVvZJ7iJQ%2bDJHFxpH38/PIHzGfWoGJtPUHlhjjl5DAB9KZenKOFSTgUr9kWzTW00KcJmidoweoyDjr6VcT2u5pYLuOOC0YquEeadgXOemF%2bGgZrOnDjioc3QI20y8YOuUhc4z/aahbN0e%2bsbUx6tcB5XUkLGTwj6Z50Na3t3VJb51huLWSOZGDmVHMnPOApzj07VQkYdSRNBjhBBBuOP9M5p/7XMLaJC0AABjB5Vzc1p4emoznEqycJX0IPOuhtgKRtuHP4P4oFPLtyztdO95nmHTOKtfZZrlpbbguNEmPHp%2bpp4YDHADgHl%2boyPtQfrvva2gSSTMYHJcmqTTITM3lYhhzBBwRUU%2btryiy1zUFj4FRbt1KqMKOg5famedTghtRI6q0jclHcmufNj38llMbe8zl%2bFwzHJIPQ0cQ6tb65rEWm3E0kMUMZAeI4JYkYPP5UBRdb80mx1VLfVpntZVbr4RMZB6Hj6ferDS9x2OqSSyae5ktxIUDEEeb5A9vnVBJt7S7d1kvpbm4cDhBZFcHnn8NC%2b9GtdqJBqdhcXQmZmKxMQEI4epGOucVUKHc00T67qBi5Rm9lIA9OM10HsR1k25EydClczScUirK5Jd34mPqSeddMezdAu14PyUC63Ztq1g0iSRZy0ijkCag%2bzD2b6puCNr%2b6VrLSe0zr5pfyL3%2bvT609NvbEtlRZ9dRLmXkVgzlF%2bvr/AIoxuAsdqygKiAYAAwAP4oEpvjaK29xavYq0amFVjdfiVkHD%2b4x9qWslxqmmalbyywNwwHHFGMBh/wA9a6P1S70rUoktLXUbKW%2bjPiJCkyliB1wM8%2bWaG9Q28J%2bYjAPcYqAS0vfsLKiytJ4mMZUEnPpirvTtqRb80q5m1d57MO39NwEEgfiYHr6Yqbb7baNQEVRKeSkL0NF2g2VxZWFrb2fhEokcbNJnGB8R5d/SgSuo%2bxPWbG6jEM8V/YA544xwyL9VP8GmHtS3On6Q9tIrK0QK4YYNM5B1B6itN1bQ3EbLPGrgjGe/3qiSo8vzrReW8V3A8FwgeKRSrKehHpW2CUSIGHf9q9PU0A5d7U02WOLwLaKCaBg8EsaANEw6EVivv1u3BqFusydriAf7L2/SiUV4elBVWcceTK/IDkuR3NTrSDwY1GST6msoVVmdgOYYj6VvFB8R5s1i3T6VsNRZpCJApIDH4Seh%2bVB//9k=' /%3e%3c/svg%3e"},"path":"/author/joris-heus/"}]}},{"node":{"id":"0ab13a06ef7cace62af4bf716a13fc8c","title":"Dederis faciem","image":{"type":"image","mimeType":"image/jpeg","src":"/assets/static/lukasz-szmigiel-jFCViYFYcus-unsplash.4250cd3.ee538618820ced4104708b9d6bd84fa6.jpg","size":{"width":800,"height":533},"sizes":"(max-width: 800px) 100vw, 800px","srcset":["/assets/static/lukasz-szmigiel-jFCViYFYcus-unsplash.1b91758.ee538618820ced4104708b9d6bd84fa6.jpg 480w","/assets/static/lukasz-szmigiel-jFCViYFYcus-unsplash.4250cd3.ee538618820ced4104708b9d6bd84fa6.jpg 800w"],"dataUri":"data:image/svg+xml,%3csvg fill='none' viewBox='0 0 800 533' xmlns='http://www.w3.org/2000/svg' xmlns:xlink='http://www.w3.org/1999/xlink'%3e%3cdefs%3e%3cfilter id='__svg-blur-aff9cbaa8c7ecf849b8fb5f92d8a8355'%3e%3cfeGaussianBlur in='SourceGraphic' stdDeviation='40'/%3e%3c/filter%3e%3c/defs%3e%3cimage x='0' y='0' filter='url(%23__svg-blur-aff9cbaa8c7ecf849b8fb5f92d8a8355)' width='800' height='533' xlink:href='data:image/jpeg%3bbase64%2c/9j/2wBDAAYEBQYFBAYGBQYHBwYIChAKCgkJChQODwwQFxQYGBcUFhYaHSUfGhsjHBYWICwgIyYnKSopGR8tMC0oMCUoKSj/2wBDAQcHBwoIChMKChMoGhYaKCgoKCgoKCgoKCgoKCgoKCgoKCgoKCgoKCgoKCgoKCgoKCgoKCgoKCgoKCgoKCgoKCj/wAARCAArAEADASIAAhEBAxEB/8QAHAAAAgIDAQEAAAAAAAAAAAAABQYEBwABAwII/8QANRAAAgEDAwMCBQAIBwAAAAAAAQIDBAURABIhBjFBEyIUMlFhkQcWI1JxcrHRQ2JjgYKhwf/EABgBAQEBAQEAAAAAAAAAAAAAAAQCBQMB/8QAJBEAAQQCAQMFAQAAAAAAAAAAAQACAxESITEEQWETI4GxwdH/2gAMAwEAAhEDEQA/AKC6HjeTq6jEcM05Dk7IRlzxjj786seOlRr9bYIIp4Zj1LLtWcbdoSNSRwSc578n7aTv0Te3r2mcSSR7Fc7o/m8DjT3TKJutLdLJ7ab9ZZo1WQ5O5olJyScnkjzrj1L/AHC3x/VcI18pu68t8w6Qq5o2R4IZItyArkFiDngdsj%2b%2bky%2bUnqXyXMilficPgHGUhXkE/U/01avXcO3oy7qVAZWiP3HuX%2b3fVcR0D11y9Iogdrg%2bX3EcfDKx4%2bnb86zIpAGEnVX9BKnb2QutpI8I5nj9PBBfO0D5fz50sLA8DuY5F3GoC5LD5SBkj86duorbAl3WAV0wiZNzFT9NnGB/MfxpSrrXDTQyVFOXdBWCHv2GxWz/AN6VA8Ec8oj2kdglW5gtWW8OQ270zz5yBohLH6RnCKR%2bzXJ/5a53OMJcrKH7MkJOf5RovW0e2p9MsMtEmcjGMtpjngYhcyNoX0CzxXypqYmRJIYsqzMRglgOMedM9vuUK9SW8Vh3It7jqHYk7SNgGcAZ7gdtV/Z7g9BVTSRhSWUfNgjv9DxqXHcWeogkAB2To%2b3sCdVJCXPLvClr8TpfRfX19gqbHcUhdZBJEfcoyMg57%2bNINruayX1IjI43bptsZ/0EUf0xrpcLjBX9GzTQ0gjkSE%2bpiQsob94D%2bH40kySMLiTCpVtiKpQkljsGcedZfTdNcbmnnf4kSSE7Tnc6%2bQV%2bIFi9dI1UMRtULuHfnjxz9tCiZfhatJ09i1StIitlQ%2bwDgjvxjjXjpuR1r68VFPK8iUoIjkBP%2bIucg89gRojePiKK21e1PTM0gyrDGMIF4HntqyPTIZ30pIJbkkfqqT07haztC7FTHHgYA1OqrvBVSymVijFUTHYHB76XL7OZZFFTuMg4UjIAHH27d9DiyGQAuQMjJxnWkIA5rb5C4FxtaKqzZVhg8YHjXf0xgBXG0HJB4OuDIu0nHOsh9yHdzpa8T/0%2btzqbHNTUNOZYqgbWaJcg/wCUr40ao%2bjuoFmephhgSQ8qWypU8Z/h28aQunLnW0UhWlqZIlIDEKfP11aVovVylpomkrJWJ4Jz31mztfHeNUU2ARuG7W6KxdQ0t6NzuVXG8jxelKd4YkAe0Y8jWXekDVoqZXMpCcIpwGP72P8AzUuStqTyZnzoPcJHJJLE/wC%2bgiMvdkdarSXhGBVFKdxtazVTz1Cr65O7Ib5V8D6DUGRaeWNmi2Dxl05z9fvqfcXYyMMnH00JqvYDt4zwdarAapDdQ4X/2Q==' /%3e%3c/svg%3e"},"path":"/posts/dederis-faciem/","timeToRead":1,"featured":true,"humanTime":"05 Feb 2019","datetime":"2019-02-05T00:00:00.000Z","category":{"id":"Getting started","title":"Getting started","path":"/category/getting-started/"},"author":[{"id":"jorisheus","name":"Joris Heus","image":{"type":"image","mimeType":"image/jpeg","src":"/assets/static/jorisheus.dea1acb.5b6df044254e688965fd43af7b35308a.jpg","size":{"width":64,"height":64},"sizes":"(max-width: 64px) 100vw, 64px","srcset":["/assets/static/jorisheus.dea1acb.5b6df044254e688965fd43af7b35308a.jpg 64w"],"dataUri":"data:image/svg+xml,%3csvg fill='none' viewBox='0 0 64 64' xmlns='http://www.w3.org/2000/svg' xmlns:xlink='http://www.w3.org/1999/xlink'%3e%3cdefs%3e%3cfilter id='__svg-blur-83558f8db613ebb06851a0caedeef613'%3e%3cfeGaussianBlur in='SourceGraphic' stdDeviation='40'/%3e%3c/filter%3e%3c/defs%3e%3cimage x='0' y='0' filter='url(%23__svg-blur-83558f8db613ebb06851a0caedeef613)' width='64' height='64' xlink:href='data:image/jpeg%3bbase64%2c/9j/2wBDAAYEBQYFBAYGBQYHBwYIChAKCgkJChQODwwQFxQYGBcUFhYaHSUfGhsjHBYWICwgIyYnKSopGR8tMC0oMCUoKSj/2wBDAQcHBwoIChMKChMoGhYaKCgoKCgoKCgoKCgoKCgoKCgoKCgoKCgoKCgoKCgoKCgoKCgoKCgoKCgoKCgoKCgoKCj/wAARCABAAEADASIAAhEBAxEB/8QAHAAAAgIDAQEAAAAAAAAAAAAABgcEBQIDCAEA/8QAMhAAAgEDAgQDBgUFAAAAAAAAAQIDAAQRBQYSITFBEyJRBxQyYXGRUnKBocEkYrGy0f/EABUBAQEAAAAAAAAAAAAAAAAAAAAB/8QAFBEBAAAAAAAAAAAAAAAAAAAAAP/aAAwDAQACEQMRAD8Ak%2b1/XNum3j9wkt3uQRloAOf2pMTao8qGCKYmOWVWZc9xnFDUchDebLA/Ojja20YNUsVvZJ7iJQ%2bDJHFxpH38/PIHzGfWoGJtPUHlhjjl5DAB9KZenKOFSTgUr9kWzTW00KcJmidoweoyDjr6VcT2u5pYLuOOC0YquEeadgXOemF%2bGgZrOnDjioc3QI20y8YOuUhc4z/aahbN0e%2bsbUx6tcB5XUkLGTwj6Z50Na3t3VJb51huLWSOZGDmVHMnPOApzj07VQkYdSRNBjhBBBuOP9M5p/7XMLaJC0AABjB5Vzc1p4emoznEqycJX0IPOuhtgKRtuHP4P4oFPLtyztdO95nmHTOKtfZZrlpbbguNEmPHp%2bpp4YDHADgHl%2boyPtQfrvva2gSSTMYHJcmqTTITM3lYhhzBBwRUU%2btryiy1zUFj4FRbt1KqMKOg5famedTghtRI6q0jclHcmufNj38llMbe8zl%2bFwzHJIPQ0cQ6tb65rEWm3E0kMUMZAeI4JYkYPP5UBRdb80mx1VLfVpntZVbr4RMZB6Hj6ferDS9x2OqSSyae5ktxIUDEEeb5A9vnVBJt7S7d1kvpbm4cDhBZFcHnn8NC%2b9GtdqJBqdhcXQmZmKxMQEI4epGOucVUKHc00T67qBi5Rm9lIA9OM10HsR1k25EydClczScUirK5Jd34mPqSeddMezdAu14PyUC63Ztq1g0iSRZy0ijkCag%2bzD2b6puCNr%2b6VrLSe0zr5pfyL3%2bvT609NvbEtlRZ9dRLmXkVgzlF%2bvr/AIoxuAsdqygKiAYAAwAP4oEpvjaK29xavYq0amFVjdfiVkHD%2b4x9qWslxqmmalbyywNwwHHFGMBh/wA9a6P1S70rUoktLXUbKW%2bjPiJCkyliB1wM8%2bWaG9Q28J%2bYjAPcYqAS0vfsLKiytJ4mMZUEnPpirvTtqRb80q5m1d57MO39NwEEgfiYHr6Yqbb7baNQEVRKeSkL0NF2g2VxZWFrb2fhEokcbNJnGB8R5d/SgSuo%2bxPWbG6jEM8V/YA544xwyL9VP8GmHtS3On6Q9tIrK0QK4YYNM5B1B6itN1bQ3EbLPGrgjGe/3qiSo8vzrReW8V3A8FwgeKRSrKehHpW2CUSIGHf9q9PU0A5d7U02WOLwLaKCaBg8EsaANEw6EVivv1u3BqFusydriAf7L2/SiUV4elBVWcceTK/IDkuR3NTrSDwY1GST6msoVVmdgOYYj6VvFB8R5s1i3T6VsNRZpCJApIDH4Seh%2bVB//9k=' /%3e%3c/svg%3e"},"path":"/author/joris-heus/"}]}},{"node":{"id":"9861911472e8c16588e3628ca6ff24fb","title":"Et aequora inanes fortuna non dextra","image":{"type":"image","mimeType":"image/jpeg","src":"/assets/static/marco-marques-dJ_Zl5LpPto-unsplash.4250cd3.f5f25fa347e1db017704f0851aca4ca7.jpg","size":{"width":800,"height":451},"sizes":"(max-width: 800px) 100vw, 800px","srcset":["/assets/static/marco-marques-dJ_Zl5LpPto-unsplash.1b91758.f5f25fa347e1db017704f0851aca4ca7.jpg 480w","/assets/static/marco-marques-dJ_Zl5LpPto-unsplash.4250cd3.f5f25fa347e1db017704f0851aca4ca7.jpg 800w"],"dataUri":"data:image/svg+xml,%3csvg fill='none' viewBox='0 0 800 451' xmlns='http://www.w3.org/2000/svg' xmlns:xlink='http://www.w3.org/1999/xlink'%3e%3cdefs%3e%3cfilter id='__svg-blur-b377b946a0dfc7b6c3e2907fb46df142'%3e%3cfeGaussianBlur in='SourceGraphic' stdDeviation='40'/%3e%3c/filter%3e%3c/defs%3e%3cimage x='0' y='0' filter='url(%23__svg-blur-b377b946a0dfc7b6c3e2907fb46df142)' width='800' height='451' xlink:href='data:image/jpeg%3bbase64%2c/9j/2wBDAAYEBQYFBAYGBQYHBwYIChAKCgkJChQODwwQFxQYGBcUFhYaHSUfGhsjHBYWICwgIyYnKSopGR8tMC0oMCUoKSj/2wBDAQcHBwoIChMKChMoGhYaKCgoKCgoKCgoKCgoKCgoKCgoKCgoKCgoKCgoKCgoKCgoKCgoKCgoKCgoKCgoKCgoKCj/wAARCAAkAEADASIAAhEBAxEB/8QAGwAAAgMBAQEAAAAAAAAAAAAAAAMCBAUBBgf/xAAvEAACAQMDAwEGBgMAAAAAAAABAgMABBESITEFE0FRIjJxkbHwBhQjQmHRcoHB/8QAGAEAAwEBAAAAAAAAAAAAAAAAAQIDAAT/xAAfEQACAgMAAgMAAAAAAAAAAAAAAQIRAyExIjJBUWH/2gAMAwEAAhEDEQA/APlPS%2bqC2maa5UTBkERVsgEZ3GR9%2byKv2cdvPNKhf9OTGsNyvI2%2bP9VkWIEtkyuVAdyWbQD2xgZI9OadL1pmSOGGPs28JLJGD5yNyfJwOai4pOxK3bC76fFHIYrZm7LYPPut4B9ahc28bwJJ39TE%2bmkgcH/VHUL38xdGSNUiGBsp21Y3NIhugsJEgGgEAKRkH%2bvjWTf2Y0bW0JbB7MxVgAjOAWG%2b%2beABitD8U3NteWdjbW5gDqCCkbs2H9QSBnf5fCsaHtzRqxCl4yTnOEcejHlcfzt/NVDcq16v6P5dlf2kAOAR8fpRcXdsDh5FiVe5%2bHIbhnYzxSaQC3uqOdv8qjfXVwl9DdPM0jsOT4B3A%2btUTeSmzntiU0FjJvzuRnFOuNUnTrbfIGDnPG2KWMZJ%2bX6GicNwkXRniILB7hSyg4Jwp3pU%2bgtIY9JxjbyRtUJI5Ft4AkbCQlpM4OQPFJjJDk51Z9fnVHsZ9GTJoSFVOSw17D79Ki6ExM2vBUhSpOCaZLcDShX2ZhGACODz8qIFunuhNo1yjDgkZzx86F10Vnbezu0lWWOGVDnIJGPsUzqQZ3guTF2tS6ZFXgOo/wCjB%2bdbtz1A3pSW67YkUEOsMejRvt9%2bN6q3DQXHT7m2R2WRV1BJDn2h6HG%2b2ecVOOWTnVaBGb%2bTzk2VK8%2b7pO1NY6bQLnJbwDXZsS20bIpBDYI58VWGTtxgVcc2ss7xrrZQF/acZ2zWdxLGfO1FFTj1gXSzaRqblSw1aYtQDbjOCadZyMQkoOlkG2naiip5la2TydNi6uDMk0kyrJI4KamJyAAON%2baxTKwnjwBluTjneiitj9IsGMzyStvgHbXj60rUWILHgUUV0FUf/9k=' /%3e%3c/svg%3e"},"path":"/posts/et-aequora-inanes-fortuna-non-dextra/","timeToRead":2,"featured":false,"humanTime":"20 Mar 2019","datetime":"2019-03-20T00:00:00.000Z","category":{"id":"Digital","title":"Digital","path":"/category/digital/"},"author":[{"id":"jorisheus","name":"Joris Heus","image":{"type":"image","mimeType":"image/jpeg","src":"/assets/static/jorisheus.dea1acb.5b6df044254e688965fd43af7b35308a.jpg","size":{"width":64,"height":64},"sizes":"(max-width: 64px) 100vw, 64px","srcset":["/assets/static/jorisheus.dea1acb.5b6df044254e688965fd43af7b35308a.jpg 64w"],"dataUri":"data:image/svg+xml,%3csvg fill='none' viewBox='0 0 64 64' xmlns='http://www.w3.org/2000/svg' xmlns:xlink='http://www.w3.org/1999/xlink'%3e%3cdefs%3e%3cfilter id='__svg-blur-83558f8db613ebb06851a0caedeef613'%3e%3cfeGaussianBlur in='SourceGraphic' stdDeviation='40'/%3e%3c/filter%3e%3c/defs%3e%3cimage x='0' y='0' filter='url(%23__svg-blur-83558f8db613ebb06851a0caedeef613)' width='64' height='64' xlink:href='data:image/jpeg%3bbase64%2c/9j/2wBDAAYEBQYFBAYGBQYHBwYIChAKCgkJChQODwwQFxQYGBcUFhYaHSUfGhsjHBYWICwgIyYnKSopGR8tMC0oMCUoKSj/2wBDAQcHBwoIChMKChMoGhYaKCgoKCgoKCgoKCgoKCgoKCgoKCgoKCgoKCgoKCgoKCgoKCgoKCgoKCgoKCgoKCgoKCj/wAARCABAAEADASIAAhEBAxEB/8QAHAAAAgIDAQEAAAAAAAAAAAAABgcEBQIDCAEA/8QAMhAAAgEDAgQDBgUFAAAAAAAAAQIDAAQRBQYSITFBEyJRBxQyYXGRUnKBocEkYrGy0f/EABUBAQEAAAAAAAAAAAAAAAAAAAAB/8QAFBEBAAAAAAAAAAAAAAAAAAAAAP/aAAwDAQACEQMRAD8Ak%2b1/XNum3j9wkt3uQRloAOf2pMTao8qGCKYmOWVWZc9xnFDUchDebLA/Ojja20YNUsVvZJ7iJQ%2bDJHFxpH38/PIHzGfWoGJtPUHlhjjl5DAB9KZenKOFSTgUr9kWzTW00KcJmidoweoyDjr6VcT2u5pYLuOOC0YquEeadgXOemF%2bGgZrOnDjioc3QI20y8YOuUhc4z/aahbN0e%2bsbUx6tcB5XUkLGTwj6Z50Na3t3VJb51huLWSOZGDmVHMnPOApzj07VQkYdSRNBjhBBBuOP9M5p/7XMLaJC0AABjB5Vzc1p4emoznEqycJX0IPOuhtgKRtuHP4P4oFPLtyztdO95nmHTOKtfZZrlpbbguNEmPHp%2bpp4YDHADgHl%2boyPtQfrvva2gSSTMYHJcmqTTITM3lYhhzBBwRUU%2btryiy1zUFj4FRbt1KqMKOg5famedTghtRI6q0jclHcmufNj38llMbe8zl%2bFwzHJIPQ0cQ6tb65rEWm3E0kMUMZAeI4JYkYPP5UBRdb80mx1VLfVpntZVbr4RMZB6Hj6ferDS9x2OqSSyae5ktxIUDEEeb5A9vnVBJt7S7d1kvpbm4cDhBZFcHnn8NC%2b9GtdqJBqdhcXQmZmKxMQEI4epGOucVUKHc00T67qBi5Rm9lIA9OM10HsR1k25EydClczScUirK5Jd34mPqSeddMezdAu14PyUC63Ztq1g0iSRZy0ijkCag%2bzD2b6puCNr%2b6VrLSe0zr5pfyL3%2bvT609NvbEtlRZ9dRLmXkVgzlF%2bvr/AIoxuAsdqygKiAYAAwAP4oEpvjaK29xavYq0amFVjdfiVkHD%2b4x9qWslxqmmalbyywNwwHHFGMBh/wA9a6P1S70rUoktLXUbKW%2bjPiJCkyliB1wM8%2bWaG9Q28J%2bYjAPcYqAS0vfsLKiytJ4mMZUEnPpirvTtqRb80q5m1d57MO39NwEEgfiYHr6Yqbb7baNQEVRKeSkL0NF2g2VxZWFrb2fhEokcbNJnGB8R5d/SgSuo%2bxPWbG6jEM8V/YA544xwyL9VP8GmHtS3On6Q9tIrK0QK4YYNM5B1B6itN1bQ3EbLPGrgjGe/3qiSo8vzrReW8V3A8FwgeKRSrKehHpW2CUSIGHf9q9PU0A5d7U02WOLwLaKCaBg8EsaANEw6EVivv1u3BqFusydriAf7L2/SiUV4elBVWcceTK/IDkuR3NTrSDwY1GST6msoVVmdgOYYj6VvFB8R5s1i3T6VsNRZpCJApIDH4Seh%2bVB//9k=' /%3e%3c/svg%3e"},"path":"/author/joris-heus/"}]}}]}}},"context":{}}