{"hash":"4931fa168c3524a2f436d2eaa9396372f3e07a58","data":{"author":{"name":"Joris Heus","path":"/author/joris-heus/","bio":"Thats me","image":{"type":"image","mimeType":"image/jpeg","src":"/assets/static/jorisheus.a68c322.5b6df044254e688965fd43af7b35308a.jpg","size":{"width":150,"height":150},"sizes":"(max-width: 150px) 100vw, 150px","srcset":["/assets/static/jorisheus.a68c322.5b6df044254e688965fd43af7b35308a.jpg 150w"],"dataUri":"data:image/svg+xml,%3csvg fill='none' viewBox='0 0 150 150' xmlns='http://www.w3.org/2000/svg' xmlns:xlink='http://www.w3.org/1999/xlink'%3e%3cdefs%3e%3cfilter id='__svg-blur-83558f8db613ebb06851a0caedeef613'%3e%3cfeGaussianBlur in='SourceGraphic' stdDeviation='40'/%3e%3c/filter%3e%3c/defs%3e%3cimage x='0' y='0' filter='url(%23__svg-blur-83558f8db613ebb06851a0caedeef613)' width='150' height='150' xlink:href='data:image/jpeg%3bbase64%2c/9j/2wBDAAYEBQYFBAYGBQYHBwYIChAKCgkJChQODwwQFxQYGBcUFhYaHSUfGhsjHBYWICwgIyYnKSopGR8tMC0oMCUoKSj/2wBDAQcHBwoIChMKChMoGhYaKCgoKCgoKCgoKCgoKCgoKCgoKCgoKCgoKCgoKCgoKCgoKCgoKCgoKCgoKCgoKCgoKCj/wAARCABAAEADASIAAhEBAxEB/8QAHAAAAgIDAQEAAAAAAAAAAAAABgcEBQIDCAEA/8QAMhAAAgEDAgQDBgUFAAAAAAAAAQIDAAQRBQYSITFBEyJRBxQyYXGRUnKBocEkYrGy0f/EABUBAQEAAAAAAAAAAAAAAAAAAAAB/8QAFBEBAAAAAAAAAAAAAAAAAAAAAP/aAAwDAQACEQMRAD8Ak%2b1/XNum3j9wkt3uQRloAOf2pMTao8qGCKYmOWVWZc9xnFDUchDebLA/Ojja20YNUsVvZJ7iJQ%2bDJHFxpH38/PIHzGfWoGJtPUHlhjjl5DAB9KZenKOFSTgUr9kWzTW00KcJmidoweoyDjr6VcT2u5pYLuOOC0YquEeadgXOemF%2bGgZrOnDjioc3QI20y8YOuUhc4z/aahbN0e%2bsbUx6tcB5XUkLGTwj6Z50Na3t3VJb51huLWSOZGDmVHMnPOApzj07VQkYdSRNBjhBBBuOP9M5p/7XMLaJC0AABjB5Vzc1p4emoznEqycJX0IPOuhtgKRtuHP4P4oFPLtyztdO95nmHTOKtfZZrlpbbguNEmPHp%2bpp4YDHADgHl%2boyPtQfrvva2gSSTMYHJcmqTTITM3lYhhzBBwRUU%2btryiy1zUFj4FRbt1KqMKOg5famedTghtRI6q0jclHcmufNj38llMbe8zl%2bFwzHJIPQ0cQ6tb65rEWm3E0kMUMZAeI4JYkYPP5UBRdb80mx1VLfVpntZVbr4RMZB6Hj6ferDS9x2OqSSyae5ktxIUDEEeb5A9vnVBJt7S7d1kvpbm4cDhBZFcHnn8NC%2b9GtdqJBqdhcXQmZmKxMQEI4epGOucVUKHc00T67qBi5Rm9lIA9OM10HsR1k25EydClczScUirK5Jd34mPqSeddMezdAu14PyUC63Ztq1g0iSRZy0ijkCag%2bzD2b6puCNr%2b6VrLSe0zr5pfyL3%2bvT609NvbEtlRZ9dRLmXkVgzlF%2bvr/AIoxuAsdqygKiAYAAwAP4oEpvjaK29xavYq0amFVjdfiVkHD%2b4x9qWslxqmmalbyywNwwHHFGMBh/wA9a6P1S70rUoktLXUbKW%2bjPiJCkyliB1wM8%2bWaG9Q28J%2bYjAPcYqAS0vfsLKiytJ4mMZUEnPpirvTtqRb80q5m1d57MO39NwEEgfiYHr6Yqbb7baNQEVRKeSkL0NF2g2VxZWFrb2fhEokcbNJnGB8R5d/SgSuo%2bxPWbG6jEM8V/YA544xwyL9VP8GmHtS3On6Q9tIrK0QK4YYNM5B1B6itN1bQ3EbLPGrgjGe/3qiSo8vzrReW8V3A8FwgeKRSrKehHpW2CUSIGHf9q9PU0A5d7U02WOLwLaKCaBg8EsaANEw6EVivv1u3BqFusydriAf7L2/SiUV4elBVWcceTK/IDkuR3NTrSDwY1GST6msoVVmdgOYYj6VvFB8R5s1i3T6VsNRZpCJApIDH4Seh%2bVB//9k=' /%3e%3c/svg%3e"},"cover":{"type":"image","mimeType":"image/jpeg","src":"/assets/static/IMG_5206.52d7bf1.e5e4e044a8730c067d6c1049eeb4fc81.jpg","size":{"width":1616,"height":1080},"sizes":"(max-width: 1616px) 100vw, 1616px","srcset":["/assets/static/IMG_5206.1b91758.e5e4e044a8730c067d6c1049eeb4fc81.jpg 480w","/assets/static/IMG_5206.3df3210.e5e4e044a8730c067d6c1049eeb4fc81.jpg 1024w","/assets/static/IMG_5206.52d7bf1.e5e4e044a8730c067d6c1049eeb4fc81.jpg 1616w"],"dataUri":"data:image/svg+xml,%3csvg fill='none' viewBox='0 0 1616 1080' xmlns='http://www.w3.org/2000/svg' xmlns:xlink='http://www.w3.org/1999/xlink'%3e%3cdefs%3e%3cfilter id='__svg-blur-c57bdcb275cdbb309e853f5aa7cc278b'%3e%3cfeGaussianBlur in='SourceGraphic' stdDeviation='40'/%3e%3c/filter%3e%3c/defs%3e%3cimage x='0' y='0' filter='url(%23__svg-blur-c57bdcb275cdbb309e853f5aa7cc278b)' width='1616' height='1080' xlink:href='data:image/jpeg%3bbase64%2c/9j/2wBDAAYEBQYFBAYGBQYHBwYIChAKCgkJChQODwwQFxQYGBcUFhYaHSUfGhsjHBYWICwgIyYnKSopGR8tMC0oMCUoKSj/2wBDAQcHBwoIChMKChMoGhYaKCgoKCgoKCgoKCgoKCgoKCgoKCgoKCgoKCgoKCgoKCgoKCgoKCgoKCgoKCgoKCgoKCj/wAARCAArAEADASIAAhEBAxEB/8QAHAAAAgMBAAMAAAAAAAAAAAAAAwYEBQcIAAEC/8QAMRAAAQMCBQIEBAYDAAAAAAAAAQIDEQAEBQYSITFBURMiYZEHJHGhFCMyQlJigbHB/8QAGQEBAQEBAQEAAAAAAAAAAAAAAgMBAAQF/8QAHxEAAgICAgMBAAAAAAAAAAAAAAECAxESIUETIjFR/9oADAMBAAIRAxEAPwDpFDKutESyTzXtd20gHmgHE2htIntNLk4lJY9KIGYrKM0fF7DLTHrXCsFvrO4uEvBN0CrypBUExqO094O1Pa8wMJJh9v3rFlvCNa1Sb7L0NgV4Qkc0tOZjYE/MI96gXGaGAD8wnbsCaark%2bgbIcVOIT1FDU%2bj%2bQrPrjNzIkJW6r6JqqvM2vqQRboKf7LMn2pKmTM3R8qx69dMJj2pM%2bKmc73A8sOot3im%2bvJYZ8P8AUJHmUOuw%2b5FMDbbiU6VDSTuAdqXM85atcz2Ntb3ly7aOMOa232UgxIggzyCPuKcrI/Ecq2uWc2OMOuXiQ4NGtYTLm0b11fheJWeJ2AuMPumrlgHRrbMiRsRXOuTsq3mYsyqsmbsWzFk8VuuyCsBKjBSn9x2%2bgneuh8JsbHBLFFnYtFCApS1at1LUTKlKPUk1OFmrFKGxKOqPMo0EgSdxHqaI442pMkK7zNBcU2oeVRB6TtVPMFVpAXQgcEzUeYXHIoy1tokrWFfWaAFsGZcM8cH/AIKxWr9HoJrObH7JxJS234AAKlKdO4nvUy3vzdtvpbeSmU7JChKPSOp7Gs4wFtN5eNJuR4iEsJcCTwFTzFaXc2zDGHJeaaQlwkSQOeeRXy5ep7E8rJU4DhFlgGJOXacSuElwkOhbYlRJ6kSRvT63ilhdM3DVuXgtoRrBlJHfiRvxWcKcUouuqUS4rlXU1XquHUXDaUuKAJ3g1Lytk9sdGquuOaEhgk7eaUk/fv6UN1padTnjSB00xH%2bKXsRun28XaYS6steEhelR1bkb80xj8xjz7%2bX/AGKopti1UiGpsukkOmBOxA278Hiqy/dfYV4bev0JEg9amhamvxCmzCgnY89qp9ROKlJJgFaYBjYNEge4FUhY2Br14P/Z' /%3e%3c/svg%3e"},"linkedin":"https://www.linkedin.com/in/jorisheus/","github":"https://github.com/jorisheus","belongsTo":{"totalCount":13,"pageInfo":{"totalPages":3,"currentPage":3},"edges":[{"node":{"id":"fd53a2e06c68f0e97964df4b62516aa3","title":"Cum est bis","image":{"type":"image","mimeType":"image/jpeg","src":"/assets/static/menghan-zhang-gnoY8Z0umg4-unsplash.4250cd3.03be5f52ef168194e45e7cc57221741a.jpg","size":{"width":800,"height":600},"sizes":"(max-width: 800px) 100vw, 800px","srcset":["/assets/static/menghan-zhang-gnoY8Z0umg4-unsplash.1b91758.03be5f52ef168194e45e7cc57221741a.jpg 480w","/assets/static/menghan-zhang-gnoY8Z0umg4-unsplash.4250cd3.03be5f52ef168194e45e7cc57221741a.jpg 800w"],"dataUri":"data:image/svg+xml,%3csvg fill='none' viewBox='0 0 800 600' xmlns='http://www.w3.org/2000/svg' xmlns:xlink='http://www.w3.org/1999/xlink'%3e%3cdefs%3e%3cfilter id='__svg-blur-89ebf8f61e7e2de0a1af95d05ecef78c'%3e%3cfeGaussianBlur in='SourceGraphic' stdDeviation='40'/%3e%3c/filter%3e%3c/defs%3e%3cimage x='0' y='0' filter='url(%23__svg-blur-89ebf8f61e7e2de0a1af95d05ecef78c)' width='800' height='600' xlink:href='data:image/jpeg%3bbase64%2c/9j/2wBDAAYEBQYFBAYGBQYHBwYIChAKCgkJChQODwwQFxQYGBcUFhYaHSUfGhsjHBYWICwgIyYnKSopGR8tMC0oMCUoKSj/2wBDAQcHBwoIChMKChMoGhYaKCgoKCgoKCgoKCgoKCgoKCgoKCgoKCgoKCgoKCgoKCgoKCgoKCgoKCgoKCgoKCgoKCj/wAARCAAwAEADASIAAhEBAxEB/8QAGgAAAgMBAQAAAAAAAAAAAAAABQYDBAcCAf/EADUQAAIBAwIFAgMDDQAAAAAAAAECAwAEERIhBRNBUWEGMQeRoRQVUiIkMjNCYnGBkrHB4fD/xAAYAQADAQEAAAAAAAAAAAAAAAABAgMEAP/EACERAAICAAcAAwAAAAAAAAAAAAABAhEDBBITITFRImGx/9oADAMBAAIRAxEAPwBxW18VOtp4o1HZ%2bKsR2WelX3Y%2bmZwkA47TxU6WnijkViM4ru4it7O2lubuVIYIlLySOcKqj3Jp1ix9F22BVtPFdrZ%2bKvenpW4tYC9MHIt5mJt1b9NoujsOhPuB2xRb7F2IFc8xBBWDJi%2bLTxXv2TxRW5tLlCOThh13UY%2bdcA3KK4a0Q4Gzc3JP0qLzkU6r8KrKtq7Mlb4kMo2lc/wUCq83xUkt1LlwqjrJIAKxy3vJgBz7O4BPUrnFXoOJo8gRWCZGAWTB/nStYS6jY63H3KjT7X4q3l235pd26EnGp84q9xbiC%2boLRLb1BxC5vLYOJTDGwijYj21AbkeDWW2944lMKaGY9FJB%2blEkuZmVFQSIztgxEkgDrk0jkr%2bKSKxg%2b5OzZIfV8ioBGzhFAACjYD2AFdj1fNn9Y4Pk0hScRjSHDKkUekEorYVO4zQpeMpNO8VlHCWj3LuM6j2Hesrq%2bjZFcJ2ai/qmVgCJjv5JqA%2bqpgxAct02JrN7njbRaebKUB3OwB/pqROKNNbwhLxjk7ry8f2zQ4XNHOP2Zfb3EMZRImOoLnPM2xt26%2bKmvLhHaNktYwCpDaSxwe%2b5pYV4ICrxhiSDjIz4yT1rpFYhzNKVjKmRVkYflAdumcVo082ZNdqhqt%2bI4fSqkqeud9PiilvxGaO2L6VMhGIxI4JJP4R1pRhntPuoXERYywsGmjIAVkJAUD6/OpoZyNdzJbCRkdW0h1ZAGYnSRnbbGMdqHAyb9Ge6SaayuphMZWhjjmwrfsE6STncEHAx5rrhFxrQW8ME1xJIxOEAY7f6/wA1Vu5rDinDuHyLfpDcMY7O41rpyojzqO/4l9%2b5oLZ8UeDEc8zNbuGBjhbQr77HbBG4HyqUW5JplZVFpocLriIgPKW4ZJhtjl4B/dweo3GPaqMF2LhpZdLIIyATuCTjqfbp7GlibiMYR%2bcI2mlOCdJLDGxPbf8A4VLPxdWtEtbeKK3TADyKMSTHucnajt%2bAeL6f/9k=' /%3e%3c/svg%3e"},"path":"/posts/cum-est-bis/","timeToRead":1,"featured":true,"humanTime":"01 Apr 2019","datetime":"2019-04-01T00:00:00.000Z","category":{"id":"Getting started","title":"Getting started","path":"/category/getting-started/"},"author":[{"id":"jorisheus","name":"Joris Heus","image":{"type":"image","mimeType":"image/jpeg","src":"/assets/static/jorisheus.dea1acb.5b6df044254e688965fd43af7b35308a.jpg","size":{"width":64,"height":64},"sizes":"(max-width: 64px) 100vw, 64px","srcset":["/assets/static/jorisheus.dea1acb.5b6df044254e688965fd43af7b35308a.jpg 64w"],"dataUri":"data:image/svg+xml,%3csvg fill='none' viewBox='0 0 64 64' xmlns='http://www.w3.org/2000/svg' xmlns:xlink='http://www.w3.org/1999/xlink'%3e%3cdefs%3e%3cfilter id='__svg-blur-83558f8db613ebb06851a0caedeef613'%3e%3cfeGaussianBlur in='SourceGraphic' stdDeviation='40'/%3e%3c/filter%3e%3c/defs%3e%3cimage x='0' y='0' filter='url(%23__svg-blur-83558f8db613ebb06851a0caedeef613)' width='64' height='64' xlink:href='data:image/jpeg%3bbase64%2c/9j/2wBDAAYEBQYFBAYGBQYHBwYIChAKCgkJChQODwwQFxQYGBcUFhYaHSUfGhsjHBYWICwgIyYnKSopGR8tMC0oMCUoKSj/2wBDAQcHBwoIChMKChMoGhYaKCgoKCgoKCgoKCgoKCgoKCgoKCgoKCgoKCgoKCgoKCgoKCgoKCgoKCgoKCgoKCgoKCj/wAARCABAAEADASIAAhEBAxEB/8QAHAAAAgIDAQEAAAAAAAAAAAAABgcEBQIDCAEA/8QAMhAAAgEDAgQDBgUFAAAAAAAAAQIDAAQRBQYSITFBEyJRBxQyYXGRUnKBocEkYrGy0f/EABUBAQEAAAAAAAAAAAAAAAAAAAAB/8QAFBEBAAAAAAAAAAAAAAAAAAAAAP/aAAwDAQACEQMRAD8Ak%2b1/XNum3j9wkt3uQRloAOf2pMTao8qGCKYmOWVWZc9xnFDUchDebLA/Ojja20YNUsVvZJ7iJQ%2bDJHFxpH38/PIHzGfWoGJtPUHlhjjl5DAB9KZenKOFSTgUr9kWzTW00KcJmidoweoyDjr6VcT2u5pYLuOOC0YquEeadgXOemF%2bGgZrOnDjioc3QI20y8YOuUhc4z/aahbN0e%2bsbUx6tcB5XUkLGTwj6Z50Na3t3VJb51huLWSOZGDmVHMnPOApzj07VQkYdSRNBjhBBBuOP9M5p/7XMLaJC0AABjB5Vzc1p4emoznEqycJX0IPOuhtgKRtuHP4P4oFPLtyztdO95nmHTOKtfZZrlpbbguNEmPHp%2bpp4YDHADgHl%2boyPtQfrvva2gSSTMYHJcmqTTITM3lYhhzBBwRUU%2btryiy1zUFj4FRbt1KqMKOg5famedTghtRI6q0jclHcmufNj38llMbe8zl%2bFwzHJIPQ0cQ6tb65rEWm3E0kMUMZAeI4JYkYPP5UBRdb80mx1VLfVpntZVbr4RMZB6Hj6ferDS9x2OqSSyae5ktxIUDEEeb5A9vnVBJt7S7d1kvpbm4cDhBZFcHnn8NC%2b9GtdqJBqdhcXQmZmKxMQEI4epGOucVUKHc00T67qBi5Rm9lIA9OM10HsR1k25EydClczScUirK5Jd34mPqSeddMezdAu14PyUC63Ztq1g0iSRZy0ijkCag%2bzD2b6puCNr%2b6VrLSe0zr5pfyL3%2bvT609NvbEtlRZ9dRLmXkVgzlF%2bvr/AIoxuAsdqygKiAYAAwAP4oEpvjaK29xavYq0amFVjdfiVkHD%2b4x9qWslxqmmalbyywNwwHHFGMBh/wA9a6P1S70rUoktLXUbKW%2bjPiJCkyliB1wM8%2bWaG9Q28J%2bYjAPcYqAS0vfsLKiytJ4mMZUEnPpirvTtqRb80q5m1d57MO39NwEEgfiYHr6Yqbb7baNQEVRKeSkL0NF2g2VxZWFrb2fhEokcbNJnGB8R5d/SgSuo%2bxPWbG6jEM8V/YA544xwyL9VP8GmHtS3On6Q9tIrK0QK4YYNM5B1B6itN1bQ3EbLPGrgjGe/3qiSo8vzrReW8V3A8FwgeKRSrKehHpW2CUSIGHf9q9PU0A5d7U02WOLwLaKCaBg8EsaANEw6EVivv1u3BqFusydriAf7L2/SiUV4elBVWcceTK/IDkuR3NTrSDwY1GST6msoVVmdgOYYj6VvFB8R5s1i3T6VsNRZpCJApIDH4Seh%2bVB//9k=' /%3e%3c/svg%3e"},"path":"/author/joris-heus/"}]}}]}}},"context":{}}