{"hash":"4931fa168c3524a2f436d2eaa9396372f3e07a58","data":{"tag":{"title":"tag5","path":"/tags/tag5/","belongsTo":{"totalCount":4,"pageInfo":{"totalPages":2,"currentPage":2},"edges":[{"node":{"id":"9fa5860841574d8a1b255a86a32ef392","title":"Monendo decimo referunt supremum","image":{"type":"image","mimeType":"image/jpeg","src":"/assets/static/qingbao-meng-01_igFr7hd4-unsplash.4250cd3.dcc9fafb1532f74768d34a5075c265b5.jpg","size":{"width":800,"height":477},"sizes":"(max-width: 800px) 100vw, 800px","srcset":["/assets/static/qingbao-meng-01_igFr7hd4-unsplash.1b91758.dcc9fafb1532f74768d34a5075c265b5.jpg 480w","/assets/static/qingbao-meng-01_igFr7hd4-unsplash.4250cd3.dcc9fafb1532f74768d34a5075c265b5.jpg 800w"],"dataUri":"data:image/svg+xml,%3csvg fill='none' viewBox='0 0 800 477' xmlns='http://www.w3.org/2000/svg' xmlns:xlink='http://www.w3.org/1999/xlink'%3e%3cdefs%3e%3cfilter id='__svg-blur-78e5e20c5b6a43017bf737db2285ffaa'%3e%3cfeGaussianBlur in='SourceGraphic' stdDeviation='40'/%3e%3c/filter%3e%3c/defs%3e%3cimage x='0' y='0' filter='url(%23__svg-blur-78e5e20c5b6a43017bf737db2285ffaa)' width='800' height='477' xlink:href='data:image/jpeg%3bbase64%2c/9j/2wBDAAYEBQYFBAYGBQYHBwYIChAKCgkJChQODwwQFxQYGBcUFhYaHSUfGhsjHBYWICwgIyYnKSopGR8tMC0oMCUoKSj/2wBDAQcHBwoIChMKChMoGhYaKCgoKCgoKCgoKCgoKCgoKCgoKCgoKCgoKCgoKCgoKCgoKCgoKCgoKCgoKCgoKCgoKCj/wAARCAAmAEADASIAAhEBAxEB/8QAGgAAAQUBAAAAAAAAAAAAAAAABgADBAUHAv/EAC8QAAIBAwIDBwMEAwAAAAAAAAECAwAEEQUSEyExFCJBUWFxgQYysSVCkaFSYsH/xAAYAQADAQEAAAAAAAAAAAAAAAABAgQDAP/EACYRAAIBAwIFBQEAAAAAAAAAAAABAgMREiGhMUFxwfAEBSIyYYH/2gAMAwEAAhEDEQA/AImkfUcaLmQImBnm43D0C881ZQ6/DcSGS1t1uZiQO6GLMfLB6VkltPCShAfeeq7gvMVcxTvcRNJbtJEB1GQpI9On8VLOFuZEpGjz6y0FzEmouts5YmQMwJB8BgDNSzq0EBtmtbhHQ8z3cg59/Gs3sbOe/tWa4ljSCLGy5mlCbefiDzIoj02PR4rZIdY16PdGdmy1UnHjgswH4I9alrOMdG/4h0wph1scY9lijSYoRxJTuZgf8T0HxXa3HCUu/EUkck3Yzn8/ih3tOjWmey3jXKDJCOQceJJAHP8AFUF19WyXNrNHaCO3tlXOVXDMT5k%2b3SupSy%2biNVJcw2n1NZ24zXCKyNgKMkD5A73xVTe3Fw2TaQStuGOMYSoA/wBc9KHdN%2bqbhjxLm5fhKgDr13DPQ1Kmv47mGSV5ZjbxnKrI2QM%2bfrWrc07NBVr3AWKew4CcCbT55go7s8bRsPnoalC4NxCBNZWJUfaEnbI%2bA2B/FZ9JKkYwGAPkvOn7O%2bgiQ8VZi3mGA/5RdJvXJ%2bdLCqmjQ4OG6n9NhnIXaMzbcDyGXrqeW0Y8Cf6bkimwFWSK4ZQB6kkqaD7a4tZIi7tIUUfZkbj/ACKetzpaxcKc30Zx96hH2%2buMCp50pJ3u9%2b0g4JF%2bbTBkRboQowwMzxSYHkcMPxUe70fVLOxaQwmW1J38aHvr846fNQIoNF2qJdY7ijO3sjhyfXnipC63oFpG0MMmqtnq1vIIgT5nIOa5V6sX8dfzFrfTuDBDVqSsQkd1GTlVNOXGo75%2bAsh4UKFiB%2b5qb7dbcRZHkubqAHIS6jXd7blOabv7rQbnd2axurCXH3RScVc%2beDg/3Va9Twyi/N9jsWgLjKj9vOrHTbE307Rs4RUQuSBnl6DzpUqebsjRMfeSxtpAi2srlDzZpsZPsBU6zk0y5kxLFeRM3ikit/RFKlUde8YOSevURydy4f6OmlspLuwu45IwCSs6FDj3GaA4oSs7cY52nmFNKlWfttepWhJzdw8QgsbhWRWKdR7muZry8kLLFcyoOeAJCMY9qVKrXFPihz//2Q==' /%3e%3c/svg%3e"},"path":"/posts/monendo-decimo-referunt-supremum/","timeToRead":1,"featured":true,"humanTime":"28 Jun 2019","datetime":"2019-06-28T00:00:00.000Z","category":{"id":"Digital","title":"Digital","path":"/category/digital/"},"author":[{"id":"jorisheus","name":"Joris Heus","image":{"type":"image","mimeType":"image/jpeg","src":"/assets/static/jorisheus.dea1acb.5b6df044254e688965fd43af7b35308a.jpg","size":{"width":64,"height":64},"sizes":"(max-width: 64px) 100vw, 64px","srcset":["/assets/static/jorisheus.dea1acb.5b6df044254e688965fd43af7b35308a.jpg 64w"],"dataUri":"data:image/svg+xml,%3csvg fill='none' viewBox='0 0 64 64' xmlns='http://www.w3.org/2000/svg' xmlns:xlink='http://www.w3.org/1999/xlink'%3e%3cdefs%3e%3cfilter id='__svg-blur-83558f8db613ebb06851a0caedeef613'%3e%3cfeGaussianBlur in='SourceGraphic' stdDeviation='40'/%3e%3c/filter%3e%3c/defs%3e%3cimage x='0' y='0' filter='url(%23__svg-blur-83558f8db613ebb06851a0caedeef613)' width='64' height='64' xlink:href='data:image/jpeg%3bbase64%2c/9j/2wBDAAYEBQYFBAYGBQYHBwYIChAKCgkJChQODwwQFxQYGBcUFhYaHSUfGhsjHBYWICwgIyYnKSopGR8tMC0oMCUoKSj/2wBDAQcHBwoIChMKChMoGhYaKCgoKCgoKCgoKCgoKCgoKCgoKCgoKCgoKCgoKCgoKCgoKCgoKCgoKCgoKCgoKCgoKCj/wAARCABAAEADASIAAhEBAxEB/8QAHAAAAgIDAQEAAAAAAAAAAAAABgcEBQIDCAEA/8QAMhAAAgEDAgQDBgUFAAAAAAAAAQIDAAQRBQYSITFBEyJRBxQyYXGRUnKBocEkYrGy0f/EABUBAQEAAAAAAAAAAAAAAAAAAAAB/8QAFBEBAAAAAAAAAAAAAAAAAAAAAP/aAAwDAQACEQMRAD8Ak%2b1/XNum3j9wkt3uQRloAOf2pMTao8qGCKYmOWVWZc9xnFDUchDebLA/Ojja20YNUsVvZJ7iJQ%2bDJHFxpH38/PIHzGfWoGJtPUHlhjjl5DAB9KZenKOFSTgUr9kWzTW00KcJmidoweoyDjr6VcT2u5pYLuOOC0YquEeadgXOemF%2bGgZrOnDjioc3QI20y8YOuUhc4z/aahbN0e%2bsbUx6tcB5XUkLGTwj6Z50Na3t3VJb51huLWSOZGDmVHMnPOApzj07VQkYdSRNBjhBBBuOP9M5p/7XMLaJC0AABjB5Vzc1p4emoznEqycJX0IPOuhtgKRtuHP4P4oFPLtyztdO95nmHTOKtfZZrlpbbguNEmPHp%2bpp4YDHADgHl%2boyPtQfrvva2gSSTMYHJcmqTTITM3lYhhzBBwRUU%2btryiy1zUFj4FRbt1KqMKOg5famedTghtRI6q0jclHcmufNj38llMbe8zl%2bFwzHJIPQ0cQ6tb65rEWm3E0kMUMZAeI4JYkYPP5UBRdb80mx1VLfVpntZVbr4RMZB6Hj6ferDS9x2OqSSyae5ktxIUDEEeb5A9vnVBJt7S7d1kvpbm4cDhBZFcHnn8NC%2b9GtdqJBqdhcXQmZmKxMQEI4epGOucVUKHc00T67qBi5Rm9lIA9OM10HsR1k25EydClczScUirK5Jd34mPqSeddMezdAu14PyUC63Ztq1g0iSRZy0ijkCag%2bzD2b6puCNr%2b6VrLSe0zr5pfyL3%2bvT609NvbEtlRZ9dRLmXkVgzlF%2bvr/AIoxuAsdqygKiAYAAwAP4oEpvjaK29xavYq0amFVjdfiVkHD%2b4x9qWslxqmmalbyywNwwHHFGMBh/wA9a6P1S70rUoktLXUbKW%2bjPiJCkyliB1wM8%2bWaG9Q28J%2bYjAPcYqAS0vfsLKiytJ4mMZUEnPpirvTtqRb80q5m1d57MO39NwEEgfiYHr6Yqbb7baNQEVRKeSkL0NF2g2VxZWFrb2fhEokcbNJnGB8R5d/SgSuo%2bxPWbG6jEM8V/YA544xwyL9VP8GmHtS3On6Q9tIrK0QK4YYNM5B1B6itN1bQ3EbLPGrgjGe/3qiSo8vzrReW8V3A8FwgeKRSrKehHpW2CUSIGHf9q9PU0A5d7U02WOLwLaKCaBg8EsaANEw6EVivv1u3BqFusydriAf7L2/SiUV4elBVWcceTK/IDkuR3NTrSDwY1GST6msoVVmdgOYYj6VvFB8R5s1i3T6VsNRZpCJApIDH4Seh%2bVB//9k=' /%3e%3c/svg%3e"},"path":"/author/joris-heus/"}]}}]}}},"context":{}}