{"hash":"4931fa168c3524a2f436d2eaa9396372f3e07a58","data":{"tag":{"title":"tag1","path":"/tags/tag1/","belongsTo":{"totalCount":4,"pageInfo":{"totalPages":2,"currentPage":1},"edges":[{"node":{"id":"05e1ed485f95d3afec0baa91299ff2d9","title":"Styles","image":{"type":"image","mimeType":"image/jpeg","src":"/assets/static/steven-wong-LcemoNqHIxY-unsplash.4250cd3.beafe21bb034df6d1e25e4eab7d193ee.jpg","size":{"width":800,"height":534},"sizes":"(max-width: 800px) 100vw, 800px","srcset":["/assets/static/steven-wong-LcemoNqHIxY-unsplash.1b91758.beafe21bb034df6d1e25e4eab7d193ee.jpg 480w","/assets/static/steven-wong-LcemoNqHIxY-unsplash.4250cd3.beafe21bb034df6d1e25e4eab7d193ee.jpg 800w"],"dataUri":"data:image/svg+xml,%3csvg fill='none' viewBox='0 0 800 534' xmlns='http://www.w3.org/2000/svg' xmlns:xlink='http://www.w3.org/1999/xlink'%3e%3cdefs%3e%3cfilter id='__svg-blur-5c0daeadd70eae796f495047defb5f24'%3e%3cfeGaussianBlur in='SourceGraphic' stdDeviation='40'/%3e%3c/filter%3e%3c/defs%3e%3cimage x='0' y='0' filter='url(%23__svg-blur-5c0daeadd70eae796f495047defb5f24)' width='800' height='534' xlink:href='data:image/jpeg%3bbase64%2c/9j/2wBDAAYEBQYFBAYGBQYHBwYIChAKCgkJChQODwwQFxQYGBcUFhYaHSUfGhsjHBYWICwgIyYnKSopGR8tMC0oMCUoKSj/2wBDAQcHBwoIChMKChMoGhYaKCgoKCgoKCgoKCgoKCgoKCgoKCgoKCgoKCgoKCgoKCgoKCgoKCgoKCgoKCgoKCgoKCj/wAARCAArAEADASIAAhEBAxEB/8QAHAAAAQUBAQEAAAAAAAAAAAAABgIDBAUIBwAJ/8QAMhAAAgEDAgQEBAQHAAAAAAAAAQIDAAQRBSEGEhMxQVFhcQcigaEVMkKRFCNSYpLB0f/EABgBAQEBAQEAAAAAAAAAAAAAAAMCBAEA/8QAIhEAAQQBBAIDAAAAAAAAAAAAAQACAxESEyExQaHwBCJR/9oADAMBAAIRAxEAPwCmsZLZSMyMPSijTruy6bK%2bGLAAHP5d65DFxTGoz/Dvj%2b5gKfPHMVshZ7fcdlD5J%2b1bzMFn0l2uO%2bjhKLAcj22ox4eliusAyIZD%2blQf91knU/iPrNzG0Viy2ETbZiGX/wAj2%2blDUGsajBerdw313HdKeZZlmYOD6HOaJ0zul3SaeV9CbS1TbtVlHFEg%2bZlHuawpD8XuNo7Qwfjcr5/W6Kzge9Rj8TeLpZOaTVZZWJz80anJ/agMkzuSFYhiC3ouoaYrFTfWvMvcdVcj71Vanx1wzpUTSXmpwxoPE7Z9s9/pWJJPiNxdLGUiv7iHP6oV5SP2oavr6/1a7M%2boT3V5cEZLyuXbH1qBlf2KvBoGwUzTbyFFYm0S4BOVcjLY8ft4%2bFSr%2bLSysUlo15HKxwUETOhH13zQu%2brXEkyvIxOM%2bmc9%2b1OTajKksYXsCG5T5Y7UeFm7pLqUKq0U21nZzv05JgAPFlA/7T15ottBKoEkjqyl1f8Alcrgd8fN4eXf0ocstRmW/j6qdWCSQHpsxUFfLI3H0ot0e5gh1FtNk6Zt7d%2boJUDE82MnLY5uX6b%2blDO90YyZumhDZDi7ZVUlpHGEDQzZIG4%2bbY%2bgFIkNjC/MTI0md8p%2bb1GceldP0nTlnkfVbS1luFXBKzYWORTsQwOO%2bPA5wPWhvifQrCxhW4vLe80yIkIh6RlTffZu48dhmgi%2bWJNqPvlLJAWdj3wg2e7ijJS2WTO3MWwTn3zSvxKR0R2srcAPtIyggnGPbHnVy/DVqYxNDqdtNHGylsholC7Fiebt3xvjyqLacPXd4y28klrIsxPQaO4VuVu%2bCqnIyMbkeVMZI6s9fqNrZOB2gExtzbDalyNI3KGIwowNgPvS1J3NOqObvvWhZLSJJ5MRgEAIvKMD1qVDqdwsrFpPkK8rD%2btfI%2bf1qMyKFbA8aYHauYghUHnpXja87SNEnUt7FyCYUkblGPMZGaurrj%2be40O10wW0UVvDIjlVBYtyZxuTsN98d6B%2b5ANJNQYGEixwr1n778owuNd06ewVVteleO%2b8uTjl8iu4wd%2b29TuHuKdPtBc28ttIsV/HyTLbSLHhlbKHLqcAHfbHvQEGJYAkkDtXoADNGDuCw7%2b9eMLapcEzrX//2Q==' /%3e%3c/svg%3e"},"path":"/posts/styles/","timeToRead":1,"featured":false,"humanTime":"24 Dec 2019","datetime":"2019-12-24T00:00:00.000Z","category":{"id":"Design","title":"Design","path":"/category/design/"},"author":[{"id":"jorisheus","name":"Joris Heus","image":{"type":"image","mimeType":"image/jpeg","src":"/assets/static/jorisheus.dea1acb.5b6df044254e688965fd43af7b35308a.jpg","size":{"width":64,"height":64},"sizes":"(max-width: 64px) 100vw, 64px","srcset":["/assets/static/jorisheus.dea1acb.5b6df044254e688965fd43af7b35308a.jpg 64w"],"dataUri":"data:image/svg+xml,%3csvg fill='none' viewBox='0 0 64 64' xmlns='http://www.w3.org/2000/svg' xmlns:xlink='http://www.w3.org/1999/xlink'%3e%3cdefs%3e%3cfilter id='__svg-blur-83558f8db613ebb06851a0caedeef613'%3e%3cfeGaussianBlur in='SourceGraphic' stdDeviation='40'/%3e%3c/filter%3e%3c/defs%3e%3cimage x='0' y='0' filter='url(%23__svg-blur-83558f8db613ebb06851a0caedeef613)' width='64' height='64' xlink:href='data:image/jpeg%3bbase64%2c/9j/2wBDAAYEBQYFBAYGBQYHBwYIChAKCgkJChQODwwQFxQYGBcUFhYaHSUfGhsjHBYWICwgIyYnKSopGR8tMC0oMCUoKSj/2wBDAQcHBwoIChMKChMoGhYaKCgoKCgoKCgoKCgoKCgoKCgoKCgoKCgoKCgoKCgoKCgoKCgoKCgoKCgoKCgoKCgoKCj/wAARCABAAEADASIAAhEBAxEB/8QAHAAAAgIDAQEAAAAAAAAAAAAABgcEBQIDCAEA/8QAMhAAAgEDAgQDBgUFAAAAAAAAAQIDAAQRBQYSITFBEyJRBxQyYXGRUnKBocEkYrGy0f/EABUBAQEAAAAAAAAAAAAAAAAAAAAB/8QAFBEBAAAAAAAAAAAAAAAAAAAAAP/aAAwDAQACEQMRAD8Ak%2b1/XNum3j9wkt3uQRloAOf2pMTao8qGCKYmOWVWZc9xnFDUchDebLA/Ojja20YNUsVvZJ7iJQ%2bDJHFxpH38/PIHzGfWoGJtPUHlhjjl5DAB9KZenKOFSTgUr9kWzTW00KcJmidoweoyDjr6VcT2u5pYLuOOC0YquEeadgXOemF%2bGgZrOnDjioc3QI20y8YOuUhc4z/aahbN0e%2bsbUx6tcB5XUkLGTwj6Z50Na3t3VJb51huLWSOZGDmVHMnPOApzj07VQkYdSRNBjhBBBuOP9M5p/7XMLaJC0AABjB5Vzc1p4emoznEqycJX0IPOuhtgKRtuHP4P4oFPLtyztdO95nmHTOKtfZZrlpbbguNEmPHp%2bpp4YDHADgHl%2boyPtQfrvva2gSSTMYHJcmqTTITM3lYhhzBBwRUU%2btryiy1zUFj4FRbt1KqMKOg5famedTghtRI6q0jclHcmufNj38llMbe8zl%2bFwzHJIPQ0cQ6tb65rEWm3E0kMUMZAeI4JYkYPP5UBRdb80mx1VLfVpntZVbr4RMZB6Hj6ferDS9x2OqSSyae5ktxIUDEEeb5A9vnVBJt7S7d1kvpbm4cDhBZFcHnn8NC%2b9GtdqJBqdhcXQmZmKxMQEI4epGOucVUKHc00T67qBi5Rm9lIA9OM10HsR1k25EydClczScUirK5Jd34mPqSeddMezdAu14PyUC63Ztq1g0iSRZy0ijkCag%2bzD2b6puCNr%2b6VrLSe0zr5pfyL3%2bvT609NvbEtlRZ9dRLmXkVgzlF%2bvr/AIoxuAsdqygKiAYAAwAP4oEpvjaK29xavYq0amFVjdfiVkHD%2b4x9qWslxqmmalbyywNwwHHFGMBh/wA9a6P1S70rUoktLXUbKW%2bjPiJCkyliB1wM8%2bWaG9Q28J%2bYjAPcYqAS0vfsLKiytJ4mMZUEnPpirvTtqRb80q5m1d57MO39NwEEgfiYHr6Yqbb7baNQEVRKeSkL0NF2g2VxZWFrb2fhEokcbNJnGB8R5d/SgSuo%2bxPWbG6jEM8V/YA544xwyL9VP8GmHtS3On6Q9tIrK0QK4YYNM5B1B6itN1bQ3EbLPGrgjGe/3qiSo8vzrReW8V3A8FwgeKRSrKehHpW2CUSIGHf9q9PU0A5d7U02WOLwLaKCaBg8EsaANEw6EVivv1u3BqFusydriAf7L2/SiUV4elBVWcceTK/IDkuR3NTrSDwY1GST6msoVVmdgOYYj6VvFB8R5s1i3T6VsNRZpCJApIDH4Seh%2bVB//9k=' /%3e%3c/svg%3e"},"path":"/author/joris-heus/"}]}},{"node":{"id":"019f49ac2fb6459597941eb79f278bdf","title":"Illi litore","image":{"type":"image","mimeType":"image/jpeg","src":"/assets/static/steven-wong-LcemoNqHIxY-unsplash.4250cd3.beafe21bb034df6d1e25e4eab7d193ee.jpg","size":{"width":800,"height":534},"sizes":"(max-width: 800px) 100vw, 800px","srcset":["/assets/static/steven-wong-LcemoNqHIxY-unsplash.1b91758.beafe21bb034df6d1e25e4eab7d193ee.jpg 480w","/assets/static/steven-wong-LcemoNqHIxY-unsplash.4250cd3.beafe21bb034df6d1e25e4eab7d193ee.jpg 800w"],"dataUri":"data:image/svg+xml,%3csvg fill='none' viewBox='0 0 800 534' xmlns='http://www.w3.org/2000/svg' xmlns:xlink='http://www.w3.org/1999/xlink'%3e%3cdefs%3e%3cfilter id='__svg-blur-5c0daeadd70eae796f495047defb5f24'%3e%3cfeGaussianBlur in='SourceGraphic' stdDeviation='40'/%3e%3c/filter%3e%3c/defs%3e%3cimage x='0' y='0' filter='url(%23__svg-blur-5c0daeadd70eae796f495047defb5f24)' width='800' height='534' xlink:href='data:image/jpeg%3bbase64%2c/9j/2wBDAAYEBQYFBAYGBQYHBwYIChAKCgkJChQODwwQFxQYGBcUFhYaHSUfGhsjHBYWICwgIyYnKSopGR8tMC0oMCUoKSj/2wBDAQcHBwoIChMKChMoGhYaKCgoKCgoKCgoKCgoKCgoKCgoKCgoKCgoKCgoKCgoKCgoKCgoKCgoKCgoKCgoKCgoKCj/wAARCAArAEADASIAAhEBAxEB/8QAHAAAAQUBAQEAAAAAAAAAAAAABgIDBAUIBwAJ/8QAMhAAAgEDAgQEBAQHAAAAAAAAAQIDAAQRBSEGEhMxQVFhcQcigaEVMkKRFCNSYpLB0f/EABgBAQEBAQEAAAAAAAAAAAAAAAMCBAEA/8QAIhEAAQQBBAIDAAAAAAAAAAAAAQACAxESEyExQaHwBCJR/9oADAMBAAIRAxEAPwCmsZLZSMyMPSijTruy6bK%2bGLAAHP5d65DFxTGoz/Dvj%2b5gKfPHMVshZ7fcdlD5J%2b1bzMFn0l2uO%2bjhKLAcj22ox4eliusAyIZD%2blQf91knU/iPrNzG0Viy2ETbZiGX/wAj2%2blDUGsajBerdw313HdKeZZlmYOD6HOaJ0zul3SaeV9CbS1TbtVlHFEg%2bZlHuawpD8XuNo7Qwfjcr5/W6Kzge9Rj8TeLpZOaTVZZWJz80anJ/agMkzuSFYhiC3ouoaYrFTfWvMvcdVcj71Vanx1wzpUTSXmpwxoPE7Z9s9/pWJJPiNxdLGUiv7iHP6oV5SP2oavr6/1a7M%2boT3V5cEZLyuXbH1qBlf2KvBoGwUzTbyFFYm0S4BOVcjLY8ft4%2bFSr%2bLSysUlo15HKxwUETOhH13zQu%2brXEkyvIxOM%2bmc9%2b1OTajKksYXsCG5T5Y7UeFm7pLqUKq0U21nZzv05JgAPFlA/7T15ottBKoEkjqyl1f8Alcrgd8fN4eXf0ocstRmW/j6qdWCSQHpsxUFfLI3H0ot0e5gh1FtNk6Zt7d%2boJUDE82MnLY5uX6b%2blDO90YyZumhDZDi7ZVUlpHGEDQzZIG4%2bbY%2bgFIkNjC/MTI0md8p%2bb1GceldP0nTlnkfVbS1luFXBKzYWORTsQwOO%2bPA5wPWhvifQrCxhW4vLe80yIkIh6RlTffZu48dhmgi%2bWJNqPvlLJAWdj3wg2e7ijJS2WTO3MWwTn3zSvxKR0R2srcAPtIyggnGPbHnVy/DVqYxNDqdtNHGylsholC7Fiebt3xvjyqLacPXd4y28klrIsxPQaO4VuVu%2bCqnIyMbkeVMZI6s9fqNrZOB2gExtzbDalyNI3KGIwowNgPvS1J3NOqObvvWhZLSJJ5MRgEAIvKMD1qVDqdwsrFpPkK8rD%2btfI%2bf1qMyKFbA8aYHauYghUHnpXja87SNEnUt7FyCYUkblGPMZGaurrj%2be40O10wW0UVvDIjlVBYtyZxuTsN98d6B%2b5ANJNQYGEixwr1n778owuNd06ewVVteleO%2b8uTjl8iu4wd%2b29TuHuKdPtBc28ttIsV/HyTLbSLHhlbKHLqcAHfbHvQEGJYAkkDtXoADNGDuCw7%2b9eMLapcEzrX//2Q==' /%3e%3c/svg%3e"},"path":"/posts/illi-litore/","timeToRead":2,"featured":true,"humanTime":"24 Dec 2019","datetime":"2019-12-24T00:00:00.000Z","category":{"id":"Design","title":"Design","path":"/category/design/"},"author":[{"id":"jorisheus","name":"Joris Heus","image":{"type":"image","mimeType":"image/jpeg","src":"/assets/static/jorisheus.dea1acb.5b6df044254e688965fd43af7b35308a.jpg","size":{"width":64,"height":64},"sizes":"(max-width: 64px) 100vw, 64px","srcset":["/assets/static/jorisheus.dea1acb.5b6df044254e688965fd43af7b35308a.jpg 64w"],"dataUri":"data:image/svg+xml,%3csvg fill='none' viewBox='0 0 64 64' xmlns='http://www.w3.org/2000/svg' xmlns:xlink='http://www.w3.org/1999/xlink'%3e%3cdefs%3e%3cfilter id='__svg-blur-83558f8db613ebb06851a0caedeef613'%3e%3cfeGaussianBlur in='SourceGraphic' stdDeviation='40'/%3e%3c/filter%3e%3c/defs%3e%3cimage x='0' y='0' filter='url(%23__svg-blur-83558f8db613ebb06851a0caedeef613)' width='64' height='64' xlink:href='data:image/jpeg%3bbase64%2c/9j/2wBDAAYEBQYFBAYGBQYHBwYIChAKCgkJChQODwwQFxQYGBcUFhYaHSUfGhsjHBYWICwgIyYnKSopGR8tMC0oMCUoKSj/2wBDAQcHBwoIChMKChMoGhYaKCgoKCgoKCgoKCgoKCgoKCgoKCgoKCgoKCgoKCgoKCgoKCgoKCgoKCgoKCgoKCgoKCj/wAARCABAAEADASIAAhEBAxEB/8QAHAAAAgIDAQEAAAAAAAAAAAAABgcEBQIDCAEA/8QAMhAAAgEDAgQDBgUFAAAAAAAAAQIDAAQRBQYSITFBEyJRBxQyYXGRUnKBocEkYrGy0f/EABUBAQEAAAAAAAAAAAAAAAAAAAAB/8QAFBEBAAAAAAAAAAAAAAAAAAAAAP/aAAwDAQACEQMRAD8Ak%2b1/XNum3j9wkt3uQRloAOf2pMTao8qGCKYmOWVWZc9xnFDUchDebLA/Ojja20YNUsVvZJ7iJQ%2bDJHFxpH38/PIHzGfWoGJtPUHlhjjl5DAB9KZenKOFSTgUr9kWzTW00KcJmidoweoyDjr6VcT2u5pYLuOOC0YquEeadgXOemF%2bGgZrOnDjioc3QI20y8YOuUhc4z/aahbN0e%2bsbUx6tcB5XUkLGTwj6Z50Na3t3VJb51huLWSOZGDmVHMnPOApzj07VQkYdSRNBjhBBBuOP9M5p/7XMLaJC0AABjB5Vzc1p4emoznEqycJX0IPOuhtgKRtuHP4P4oFPLtyztdO95nmHTOKtfZZrlpbbguNEmPHp%2bpp4YDHADgHl%2boyPtQfrvva2gSSTMYHJcmqTTITM3lYhhzBBwRUU%2btryiy1zUFj4FRbt1KqMKOg5famedTghtRI6q0jclHcmufNj38llMbe8zl%2bFwzHJIPQ0cQ6tb65rEWm3E0kMUMZAeI4JYkYPP5UBRdb80mx1VLfVpntZVbr4RMZB6Hj6ferDS9x2OqSSyae5ktxIUDEEeb5A9vnVBJt7S7d1kvpbm4cDhBZFcHnn8NC%2b9GtdqJBqdhcXQmZmKxMQEI4epGOucVUKHc00T67qBi5Rm9lIA9OM10HsR1k25EydClczScUirK5Jd34mPqSeddMezdAu14PyUC63Ztq1g0iSRZy0ijkCag%2bzD2b6puCNr%2b6VrLSe0zr5pfyL3%2bvT609NvbEtlRZ9dRLmXkVgzlF%2bvr/AIoxuAsdqygKiAYAAwAP4oEpvjaK29xavYq0amFVjdfiVkHD%2b4x9qWslxqmmalbyywNwwHHFGMBh/wA9a6P1S70rUoktLXUbKW%2bjPiJCkyliB1wM8%2bWaG9Q28J%2bYjAPcYqAS0vfsLKiytJ4mMZUEnPpirvTtqRb80q5m1d57MO39NwEEgfiYHr6Yqbb7baNQEVRKeSkL0NF2g2VxZWFrb2fhEokcbNJnGB8R5d/SgSuo%2bxPWbG6jEM8V/YA544xwyL9VP8GmHtS3On6Q9tIrK0QK4YYNM5B1B6itN1bQ3EbLPGrgjGe/3qiSo8vzrReW8V3A8FwgeKRSrKehHpW2CUSIGHf9q9PU0A5d7U02WOLwLaKCaBg8EsaANEw6EVivv1u3BqFusydriAf7L2/SiUV4elBVWcceTK/IDkuR3NTrSDwY1GST6msoVVmdgOYYj6VvFB8R5s1i3T6VsNRZpCJApIDH4Seh%2bVB//9k=' /%3e%3c/svg%3e"},"path":"/author/joris-heus/"}]}},{"node":{"id":"0ab13a06ef7cace62af4bf716a13fc8c","title":"Dederis faciem","image":{"type":"image","mimeType":"image/jpeg","src":"/assets/static/lukasz-szmigiel-jFCViYFYcus-unsplash.4250cd3.ee538618820ced4104708b9d6bd84fa6.jpg","size":{"width":800,"height":533},"sizes":"(max-width: 800px) 100vw, 800px","srcset":["/assets/static/lukasz-szmigiel-jFCViYFYcus-unsplash.1b91758.ee538618820ced4104708b9d6bd84fa6.jpg 480w","/assets/static/lukasz-szmigiel-jFCViYFYcus-unsplash.4250cd3.ee538618820ced4104708b9d6bd84fa6.jpg 800w"],"dataUri":"data:image/svg+xml,%3csvg fill='none' viewBox='0 0 800 533' xmlns='http://www.w3.org/2000/svg' xmlns:xlink='http://www.w3.org/1999/xlink'%3e%3cdefs%3e%3cfilter id='__svg-blur-aff9cbaa8c7ecf849b8fb5f92d8a8355'%3e%3cfeGaussianBlur in='SourceGraphic' stdDeviation='40'/%3e%3c/filter%3e%3c/defs%3e%3cimage x='0' y='0' filter='url(%23__svg-blur-aff9cbaa8c7ecf849b8fb5f92d8a8355)' width='800' height='533' xlink:href='data:image/jpeg%3bbase64%2c/9j/2wBDAAYEBQYFBAYGBQYHBwYIChAKCgkJChQODwwQFxQYGBcUFhYaHSUfGhsjHBYWICwgIyYnKSopGR8tMC0oMCUoKSj/2wBDAQcHBwoIChMKChMoGhYaKCgoKCgoKCgoKCgoKCgoKCgoKCgoKCgoKCgoKCgoKCgoKCgoKCgoKCgoKCgoKCgoKCj/wAARCAArAEADASIAAhEBAxEB/8QAHAAAAgIDAQEAAAAAAAAAAAAABQYEBwABAwII/8QANRAAAgEDAwMCBQAIBwAAAAAAAQIDBAURABIhBjFBEyIUMlFhkQcWI1JxcrHRQ2JjgYKhwf/EABgBAQEBAQEAAAAAAAAAAAAAAAQCBQMB/8QAJBEAAQQCAQMFAQAAAAAAAAAAAQACAxESITEEQWETI4GxwdH/2gAMAwEAAhEDEQA/AKC6HjeTq6jEcM05Dk7IRlzxjj786seOlRr9bYIIp4Zj1LLtWcbdoSNSRwSc578n7aTv0Te3r2mcSSR7Fc7o/m8DjT3TKJutLdLJ7ab9ZZo1WQ5O5olJyScnkjzrj1L/AHC3x/VcI18pu68t8w6Qq5o2R4IZItyArkFiDngdsj%2b%2bky%2bUnqXyXMilficPgHGUhXkE/U/01avXcO3oy7qVAZWiP3HuX%2b3fVcR0D11y9Iogdrg%2bX3EcfDKx4%2bnb86zIpAGEnVX9BKnb2QutpI8I5nj9PBBfO0D5fz50sLA8DuY5F3GoC5LD5SBkj86duorbAl3WAV0wiZNzFT9NnGB/MfxpSrrXDTQyVFOXdBWCHv2GxWz/AN6VA8Ec8oj2kdglW5gtWW8OQ270zz5yBohLH6RnCKR%2bzXJ/5a53OMJcrKH7MkJOf5RovW0e2p9MsMtEmcjGMtpjngYhcyNoX0CzxXypqYmRJIYsqzMRglgOMedM9vuUK9SW8Vh3It7jqHYk7SNgGcAZ7gdtV/Z7g9BVTSRhSWUfNgjv9DxqXHcWeogkAB2To%2b3sCdVJCXPLvClr8TpfRfX19gqbHcUhdZBJEfcoyMg57%2bNINruayX1IjI43bptsZ/0EUf0xrpcLjBX9GzTQ0gjkSE%2bpiQsob94D%2bH40kySMLiTCpVtiKpQkljsGcedZfTdNcbmnnf4kSSE7Tnc6%2bQV%2bIFi9dI1UMRtULuHfnjxz9tCiZfhatJ09i1StIitlQ%2bwDgjvxjjXjpuR1r68VFPK8iUoIjkBP%2bIucg89gRojePiKK21e1PTM0gyrDGMIF4HntqyPTIZ30pIJbkkfqqT07haztC7FTHHgYA1OqrvBVSymVijFUTHYHB76XL7OZZFFTuMg4UjIAHH27d9DiyGQAuQMjJxnWkIA5rb5C4FxtaKqzZVhg8YHjXf0xgBXG0HJB4OuDIu0nHOsh9yHdzpa8T/0%2btzqbHNTUNOZYqgbWaJcg/wCUr40ao%2bjuoFmephhgSQ8qWypU8Z/h28aQunLnW0UhWlqZIlIDEKfP11aVovVylpomkrJWJ4Jz31mztfHeNUU2ARuG7W6KxdQ0t6NzuVXG8jxelKd4YkAe0Y8jWXekDVoqZXMpCcIpwGP72P8AzUuStqTyZnzoPcJHJJLE/wC%2bgiMvdkdarSXhGBVFKdxtazVTz1Cr65O7Ib5V8D6DUGRaeWNmi2Dxl05z9fvqfcXYyMMnH00JqvYDt4zwdarAapDdQ4X/2Q==' /%3e%3c/svg%3e"},"path":"/posts/dederis-faciem/","timeToRead":1,"featured":true,"humanTime":"05 Feb 2019","datetime":"2019-02-05T00:00:00.000Z","category":{"id":"Getting started","title":"Getting started","path":"/category/getting-started/"},"author":[{"id":"jorisheus","name":"Joris Heus","image":{"type":"image","mimeType":"image/jpeg","src":"/assets/static/jorisheus.dea1acb.5b6df044254e688965fd43af7b35308a.jpg","size":{"width":64,"height":64},"sizes":"(max-width: 64px) 100vw, 64px","srcset":["/assets/static/jorisheus.dea1acb.5b6df044254e688965fd43af7b35308a.jpg 64w"],"dataUri":"data:image/svg+xml,%3csvg fill='none' viewBox='0 0 64 64' xmlns='http://www.w3.org/2000/svg' xmlns:xlink='http://www.w3.org/1999/xlink'%3e%3cdefs%3e%3cfilter id='__svg-blur-83558f8db613ebb06851a0caedeef613'%3e%3cfeGaussianBlur in='SourceGraphic' stdDeviation='40'/%3e%3c/filter%3e%3c/defs%3e%3cimage x='0' y='0' filter='url(%23__svg-blur-83558f8db613ebb06851a0caedeef613)' width='64' height='64' xlink:href='data:image/jpeg%3bbase64%2c/9j/2wBDAAYEBQYFBAYGBQYHBwYIChAKCgkJChQODwwQFxQYGBcUFhYaHSUfGhsjHBYWICwgIyYnKSopGR8tMC0oMCUoKSj/2wBDAQcHBwoIChMKChMoGhYaKCgoKCgoKCgoKCgoKCgoKCgoKCgoKCgoKCgoKCgoKCgoKCgoKCgoKCgoKCgoKCgoKCj/wAARCABAAEADASIAAhEBAxEB/8QAHAAAAgIDAQEAAAAAAAAAAAAABgcEBQIDCAEA/8QAMhAAAgEDAgQDBgUFAAAAAAAAAQIDAAQRBQYSITFBEyJRBxQyYXGRUnKBocEkYrGy0f/EABUBAQEAAAAAAAAAAAAAAAAAAAAB/8QAFBEBAAAAAAAAAAAAAAAAAAAAAP/aAAwDAQACEQMRAD8Ak%2b1/XNum3j9wkt3uQRloAOf2pMTao8qGCKYmOWVWZc9xnFDUchDebLA/Ojja20YNUsVvZJ7iJQ%2bDJHFxpH38/PIHzGfWoGJtPUHlhjjl5DAB9KZenKOFSTgUr9kWzTW00KcJmidoweoyDjr6VcT2u5pYLuOOC0YquEeadgXOemF%2bGgZrOnDjioc3QI20y8YOuUhc4z/aahbN0e%2bsbUx6tcB5XUkLGTwj6Z50Na3t3VJb51huLWSOZGDmVHMnPOApzj07VQkYdSRNBjhBBBuOP9M5p/7XMLaJC0AABjB5Vzc1p4emoznEqycJX0IPOuhtgKRtuHP4P4oFPLtyztdO95nmHTOKtfZZrlpbbguNEmPHp%2bpp4YDHADgHl%2boyPtQfrvva2gSSTMYHJcmqTTITM3lYhhzBBwRUU%2btryiy1zUFj4FRbt1KqMKOg5famedTghtRI6q0jclHcmufNj38llMbe8zl%2bFwzHJIPQ0cQ6tb65rEWm3E0kMUMZAeI4JYkYPP5UBRdb80mx1VLfVpntZVbr4RMZB6Hj6ferDS9x2OqSSyae5ktxIUDEEeb5A9vnVBJt7S7d1kvpbm4cDhBZFcHnn8NC%2b9GtdqJBqdhcXQmZmKxMQEI4epGOucVUKHc00T67qBi5Rm9lIA9OM10HsR1k25EydClczScUirK5Jd34mPqSeddMezdAu14PyUC63Ztq1g0iSRZy0ijkCag%2bzD2b6puCNr%2b6VrLSe0zr5pfyL3%2bvT609NvbEtlRZ9dRLmXkVgzlF%2bvr/AIoxuAsdqygKiAYAAwAP4oEpvjaK29xavYq0amFVjdfiVkHD%2b4x9qWslxqmmalbyywNwwHHFGMBh/wA9a6P1S70rUoktLXUbKW%2bjPiJCkyliB1wM8%2bWaG9Q28J%2bYjAPcYqAS0vfsLKiytJ4mMZUEnPpirvTtqRb80q5m1d57MO39NwEEgfiYHr6Yqbb7baNQEVRKeSkL0NF2g2VxZWFrb2fhEokcbNJnGB8R5d/SgSuo%2bxPWbG6jEM8V/YA544xwyL9VP8GmHtS3On6Q9tIrK0QK4YYNM5B1B6itN1bQ3EbLPGrgjGe/3qiSo8vzrReW8V3A8FwgeKRSrKehHpW2CUSIGHf9q9PU0A5d7U02WOLwLaKCaBg8EsaANEw6EVivv1u3BqFusydriAf7L2/SiUV4elBVWcceTK/IDkuR3NTrSDwY1GST6msoVVmdgOYYj6VvFB8R5s1i3T6VsNRZpCJApIDH4Seh%2bVB//9k=' /%3e%3c/svg%3e"},"path":"/author/joris-heus/"}]}}]}}},"context":{}}