{"hash":"4931fa168c3524a2f436d2eaa9396372f3e07a58","data":{"tag":{"title":"tag6","path":"/tags/tag6/","belongsTo":{"totalCount":4,"pageInfo":{"totalPages":2,"currentPage":1},"edges":[{"node":{"id":"0374c0488a7bd6ce0c5d1283f4c12e22","title":"Aera exspatiantur impete inplumes plebe capillos est","image":{"type":"image","mimeType":"image/jpeg","src":"/assets/static/stephan-cassara-KnAIsBuitGg-unsplash.4250cd3.51d6e3768bd2c7f3161aed45ed04cb37.jpg","size":{"width":800,"height":533},"sizes":"(max-width: 800px) 100vw, 800px","srcset":["/assets/static/stephan-cassara-KnAIsBuitGg-unsplash.1b91758.51d6e3768bd2c7f3161aed45ed04cb37.jpg 480w","/assets/static/stephan-cassara-KnAIsBuitGg-unsplash.4250cd3.51d6e3768bd2c7f3161aed45ed04cb37.jpg 800w"],"dataUri":"data:image/svg+xml,%3csvg fill='none' viewBox='0 0 800 533' xmlns='http://www.w3.org/2000/svg' xmlns:xlink='http://www.w3.org/1999/xlink'%3e%3cdefs%3e%3cfilter id='__svg-blur-c5c27913ea083ab3f6e56507f15bd7d8'%3e%3cfeGaussianBlur in='SourceGraphic' stdDeviation='40'/%3e%3c/filter%3e%3c/defs%3e%3cimage x='0' y='0' filter='url(%23__svg-blur-c5c27913ea083ab3f6e56507f15bd7d8)' width='800' height='533' xlink:href='data:image/jpeg%3bbase64%2c/9j/2wBDAAYEBQYFBAYGBQYHBwYIChAKCgkJChQODwwQFxQYGBcUFhYaHSUfGhsjHBYWICwgIyYnKSopGR8tMC0oMCUoKSj/2wBDAQcHBwoIChMKChMoGhYaKCgoKCgoKCgoKCgoKCgoKCgoKCgoKCgoKCgoKCgoKCgoKCgoKCgoKCgoKCgoKCgoKCj/wAARCAArAEADASIAAhEBAxEB/8QAGwAAAgMBAQEAAAAAAAAAAAAABAUDBgcCAQD/xAAyEAACAQMCAwYDCAMAAAAAAAABAgMABBEFIRIxYQYTFEFRgQcioSMyM0JxgsHRYpGx/8QAFwEBAQEBAAAAAAAAAAAAAAAAAwQCAP/EACQRAAEDAgYCAwAAAAAAAAAAAAEAAgMEERITITFBkQVRYbHR/9oADAMBAAIRAxEAPwBBb64ij8aMfuFGxdpVTbxMHuw/usYQTMwRFkkLHAwcb0Td8MdvBKQikkjIc4kwBy/39apJYd1GIpBstpj7WMvK4gP7h/dGQdt5o1yrQsPUb/zWAPerJKmGOxwvlketWns/DfMLcWih7efLsJduIKSrAfNzGOnlWHMj5C2M0bFbNb/Edo/vRxH3xR8PxQAxxQR%2bz1m09hbhiYkxnrmoPAjyFYNLE5c2umb66WuL8VIAB9h%2buSDXUfxWUE8UKkeWBy%2btY/4I55/SvjZleTE%2b1CaCE%2b%2b048lNy0dKhSX8EhSePjBLiR1O44x5jp/yvdXltmW1gtomkEcTBHLZBLPnlttwgDFAag7nT4iYI40iXu1fvA253OfTPShlv5JoZGlP4cAiTfI4QetOWgnXhcCRsutQ7rgM0aOrK3diMyfdAAwAPc%2bdNdMt7iNIX8R3avG8wHExVAAM8WOR69Rzpdp7NdzpGq8aGUEvgMFyMH33q12cCRaXqkkM0k0ENskCsflLZnXOR%2bi0VTJlxlw%2bB2QFuFmJ4BXmh6xq91IY4pBPCoGJrjCjG2RnGSetWeWcxoD4y1Zsbrhsg%2bxqkXs/gblrYAhU2ChuXSo11NV3GBTsjxAOBUcsuElpaNFd47sFgXdCPMKD/NStOpG5IHpVLi1bP5qnXVcn82fWlLEIddVi8e3EUIUzSR54%2bJsAEgYwAN6FcOLiUMrwo%2bwXIJxzx%2bld2EaNNOrKCqJlQd8bUf2UjWbWY4pRxRs8YIPoXGR9aCxCuuDoptC7mee1jM8iyk/KFUKo2JO3rkUzd/DdktYmLHNzOsEe%2bNo24icdSfpTHSbeFNV10LEmEurgLtnhALYxSm/dp%2bwYEpLCCRlj/wAR3rVHXE2jHBcP37snprXd7AKWdoJpZJWeaUtcIfn%2bzCbNuOXPcmk3ft60z7TkrfAgnMlrEW6nl/FI6qpn3iaVPURjMKNS4YcjU0d0w86W5rtSfWqQ8qcxhf/Z' /%3e%3c/svg%3e"},"path":"/posts/aera-exspatiantur-impete-inplumes-plebe-capillos-est/","timeToRead":1,"featured":false,"humanTime":"11 Nov 2019","datetime":"2019-11-11T00:00:00.000Z","category":{"id":"Digital","title":"Digital","path":"/category/digital/"},"author":[{"id":"jorisheus","name":"Joris Heus","image":{"type":"image","mimeType":"image/jpeg","src":"/assets/static/jorisheus.dea1acb.5b6df044254e688965fd43af7b35308a.jpg","size":{"width":64,"height":64},"sizes":"(max-width: 64px) 100vw, 64px","srcset":["/assets/static/jorisheus.dea1acb.5b6df044254e688965fd43af7b35308a.jpg 64w"],"dataUri":"data:image/svg+xml,%3csvg fill='none' viewBox='0 0 64 64' xmlns='http://www.w3.org/2000/svg' xmlns:xlink='http://www.w3.org/1999/xlink'%3e%3cdefs%3e%3cfilter id='__svg-blur-83558f8db613ebb06851a0caedeef613'%3e%3cfeGaussianBlur in='SourceGraphic' stdDeviation='40'/%3e%3c/filter%3e%3c/defs%3e%3cimage x='0' y='0' filter='url(%23__svg-blur-83558f8db613ebb06851a0caedeef613)' width='64' height='64' xlink:href='data:image/jpeg%3bbase64%2c/9j/2wBDAAYEBQYFBAYGBQYHBwYIChAKCgkJChQODwwQFxQYGBcUFhYaHSUfGhsjHBYWICwgIyYnKSopGR8tMC0oMCUoKSj/2wBDAQcHBwoIChMKChMoGhYaKCgoKCgoKCgoKCgoKCgoKCgoKCgoKCgoKCgoKCgoKCgoKCgoKCgoKCgoKCgoKCgoKCj/wAARCABAAEADASIAAhEBAxEB/8QAHAAAAgIDAQEAAAAAAAAAAAAABgcEBQIDCAEA/8QAMhAAAgEDAgQDBgUFAAAAAAAAAQIDAAQRBQYSITFBEyJRBxQyYXGRUnKBocEkYrGy0f/EABUBAQEAAAAAAAAAAAAAAAAAAAAB/8QAFBEBAAAAAAAAAAAAAAAAAAAAAP/aAAwDAQACEQMRAD8Ak%2b1/XNum3j9wkt3uQRloAOf2pMTao8qGCKYmOWVWZc9xnFDUchDebLA/Ojja20YNUsVvZJ7iJQ%2bDJHFxpH38/PIHzGfWoGJtPUHlhjjl5DAB9KZenKOFSTgUr9kWzTW00KcJmidoweoyDjr6VcT2u5pYLuOOC0YquEeadgXOemF%2bGgZrOnDjioc3QI20y8YOuUhc4z/aahbN0e%2bsbUx6tcB5XUkLGTwj6Z50Na3t3VJb51huLWSOZGDmVHMnPOApzj07VQkYdSRNBjhBBBuOP9M5p/7XMLaJC0AABjB5Vzc1p4emoznEqycJX0IPOuhtgKRtuHP4P4oFPLtyztdO95nmHTOKtfZZrlpbbguNEmPHp%2bpp4YDHADgHl%2boyPtQfrvva2gSSTMYHJcmqTTITM3lYhhzBBwRUU%2btryiy1zUFj4FRbt1KqMKOg5famedTghtRI6q0jclHcmufNj38llMbe8zl%2bFwzHJIPQ0cQ6tb65rEWm3E0kMUMZAeI4JYkYPP5UBRdb80mx1VLfVpntZVbr4RMZB6Hj6ferDS9x2OqSSyae5ktxIUDEEeb5A9vnVBJt7S7d1kvpbm4cDhBZFcHnn8NC%2b9GtdqJBqdhcXQmZmKxMQEI4epGOucVUKHc00T67qBi5Rm9lIA9OM10HsR1k25EydClczScUirK5Jd34mPqSeddMezdAu14PyUC63Ztq1g0iSRZy0ijkCag%2bzD2b6puCNr%2b6VrLSe0zr5pfyL3%2bvT609NvbEtlRZ9dRLmXkVgzlF%2bvr/AIoxuAsdqygKiAYAAwAP4oEpvjaK29xavYq0amFVjdfiVkHD%2b4x9qWslxqmmalbyywNwwHHFGMBh/wA9a6P1S70rUoktLXUbKW%2bjPiJCkyliB1wM8%2bWaG9Q28J%2bYjAPcYqAS0vfsLKiytJ4mMZUEnPpirvTtqRb80q5m1d57MO39NwEEgfiYHr6Yqbb7baNQEVRKeSkL0NF2g2VxZWFrb2fhEokcbNJnGB8R5d/SgSuo%2bxPWbG6jEM8V/YA544xwyL9VP8GmHtS3On6Q9tIrK0QK4YYNM5B1B6itN1bQ3EbLPGrgjGe/3qiSo8vzrReW8V3A8FwgeKRSrKehHpW2CUSIGHf9q9PU0A5d7U02WOLwLaKCaBg8EsaANEw6EVivv1u3BqFusydriAf7L2/SiUV4elBVWcceTK/IDkuR3NTrSDwY1GST6msoVVmdgOYYj6VvFB8R5s1i3T6VsNRZpCJApIDH4Seh%2bVB//9k=' /%3e%3c/svg%3e"},"path":"/author/joris-heus/"}]}},{"node":{"id":"f11d7ea21b8b34951b3b03e8f969f371","title":"Non domum corripuit loquax est geminos hanc","image":{"type":"image","mimeType":"image/jpeg","src":"/assets/static/sadanand-lowanshi-6AnDyJ10_iQ-unsplash.4250cd3.b49d69134e4eaa17fec8c593f4868e90.jpg","size":{"width":800,"height":450},"sizes":"(max-width: 800px) 100vw, 800px","srcset":["/assets/static/sadanand-lowanshi-6AnDyJ10_iQ-unsplash.1b91758.b49d69134e4eaa17fec8c593f4868e90.jpg 480w","/assets/static/sadanand-lowanshi-6AnDyJ10_iQ-unsplash.4250cd3.b49d69134e4eaa17fec8c593f4868e90.jpg 800w"],"dataUri":"data:image/svg+xml,%3csvg fill='none' viewBox='0 0 800 450' xmlns='http://www.w3.org/2000/svg' xmlns:xlink='http://www.w3.org/1999/xlink'%3e%3cdefs%3e%3cfilter id='__svg-blur-1fc25c778e302c1fc929844ee838c937'%3e%3cfeGaussianBlur in='SourceGraphic' stdDeviation='40'/%3e%3c/filter%3e%3c/defs%3e%3cimage x='0' y='0' filter='url(%23__svg-blur-1fc25c778e302c1fc929844ee838c937)' width='800' height='450' xlink:href='data:image/jpeg%3bbase64%2c/9j/2wBDAAYEBQYFBAYGBQYHBwYIChAKCgkJChQODwwQFxQYGBcUFhYaHSUfGhsjHBYWICwgIyYnKSopGR8tMC0oMCUoKSj/2wBDAQcHBwoIChMKChMoGhYaKCgoKCgoKCgoKCgoKCgoKCgoKCgoKCgoKCgoKCgoKCgoKCgoKCgoKCgoKCgoKCgoKCj/wAARCAAkAEADASIAAhEBAxEB/8QAGQAAAwEBAQAAAAAAAAAAAAAAAAUGBAMH/8QALRAAAgEDAgUDAwQDAAAAAAAAAQIDAAQREiEFEzFBUSJxgTJhkQahwdEUI1L/xAAXAQEBAQEAAAAAAAAAAAAAAAAEAgMF/8QAHREAAgIDAQEBAAAAAAAAAAAAAAECAxEhMTJBE//aAAwDAQACEQMRAD8A814XaqxUqvq7HP8AFVdgXJQRoSy9SMDH3pLwqCZ4OarpHHj6vHmnImtuGQ6ZX5kmdTKu2o%2b/z1qZb0XDQ2S3kIYImkH6hvkj%2bq0/4EhDNgkBfhe39Vjtv1FZQzRc6C6KyDSrREAoe4zjJxtt4qi4fm%2bhZ7W4jlCtg5blufGQfSfkCjzcod0KrUJ82IrmIoraUB29yKVRRPNlZSqy6jhdI3/FV8%2bGlktrmPkuRjIj3/B/jNL5sWbMkbrJGTgvJGQQe3bz71UJyxwidcc9JC%2b4ZLhgI075HipLjFi5BZkGPsOlX/FIL9XcTpG65yOWwx8CpLiaurEjcDsaTXPKzkHbWos6WxWWxkBfUAh3U9NvFZOI3onu4uW4ZDGgHYkgb5FcuHW6scM2IsbLvv71ivoDa3hWMkKegC52q68bRFmdMouGvK6tJHccrSDuTgMRuMjoaobLiUdvxO1v15rQzoEdI%2bo79O5BH4qXtrdjGhY6EGPUxx8UzsVhZ7qwWZO0qBMkr/1jPcYB%2bDWbSllM1jJww0ekS8dgWFZLz/YrbRgp84wRnNKp%2bKRXkZjFtLpUnGQAzb9wOnvSOzJgjjheRZjn1yQHZVJ6Db0k/sM02i4mYU5SIFt8DSi7DPTbz70T81VxZY12u7rwjFd28xhMnJKRdNOrc/bJpTxriHD4rPRDAIH7rIM4Pv370z4jeCfnB5W5TjQd9m69vHaoPiTbHS5YEAFc5AraEXZ6D2SVXn6c%2bH%2bhIgvQ7%2b2K3XhzAJD9argGiirXTOXBdPK7rqdmbSAQCdulYoruaGZZ43KyodSsOoNFFLrQSx8PRDeyy2cMj6NTLrbSoGTgHtSppXKNknA6DxRRQV9OhLiFs13K8L5OMMPPik9zM5t2kzg/sKKK2iHsP//Z' /%3e%3c/svg%3e"},"path":"/posts/non-domum-corripuit-loquax-est-geminos-hanc/","timeToRead":1,"featured":true,"humanTime":"02 Aug 2019","datetime":"2019-08-02T00:00:00.000Z","category":{"id":"Getting started","title":"Getting started","path":"/category/getting-started/"},"author":[{"id":"jorisheus","name":"Joris Heus","image":{"type":"image","mimeType":"image/jpeg","src":"/assets/static/jorisheus.dea1acb.5b6df044254e688965fd43af7b35308a.jpg","size":{"width":64,"height":64},"sizes":"(max-width: 64px) 100vw, 64px","srcset":["/assets/static/jorisheus.dea1acb.5b6df044254e688965fd43af7b35308a.jpg 64w"],"dataUri":"data:image/svg+xml,%3csvg fill='none' viewBox='0 0 64 64' xmlns='http://www.w3.org/2000/svg' xmlns:xlink='http://www.w3.org/1999/xlink'%3e%3cdefs%3e%3cfilter id='__svg-blur-83558f8db613ebb06851a0caedeef613'%3e%3cfeGaussianBlur in='SourceGraphic' stdDeviation='40'/%3e%3c/filter%3e%3c/defs%3e%3cimage x='0' y='0' filter='url(%23__svg-blur-83558f8db613ebb06851a0caedeef613)' width='64' height='64' xlink:href='data:image/jpeg%3bbase64%2c/9j/2wBDAAYEBQYFBAYGBQYHBwYIChAKCgkJChQODwwQFxQYGBcUFhYaHSUfGhsjHBYWICwgIyYnKSopGR8tMC0oMCUoKSj/2wBDAQcHBwoIChMKChMoGhYaKCgoKCgoKCgoKCgoKCgoKCgoKCgoKCgoKCgoKCgoKCgoKCgoKCgoKCgoKCgoKCgoKCj/wAARCABAAEADASIAAhEBAxEB/8QAHAAAAgIDAQEAAAAAAAAAAAAABgcEBQIDCAEA/8QAMhAAAgEDAgQDBgUFAAAAAAAAAQIDAAQRBQYSITFBEyJRBxQyYXGRUnKBocEkYrGy0f/EABUBAQEAAAAAAAAAAAAAAAAAAAAB/8QAFBEBAAAAAAAAAAAAAAAAAAAAAP/aAAwDAQACEQMRAD8Ak%2b1/XNum3j9wkt3uQRloAOf2pMTao8qGCKYmOWVWZc9xnFDUchDebLA/Ojja20YNUsVvZJ7iJQ%2bDJHFxpH38/PIHzGfWoGJtPUHlhjjl5DAB9KZenKOFSTgUr9kWzTW00KcJmidoweoyDjr6VcT2u5pYLuOOC0YquEeadgXOemF%2bGgZrOnDjioc3QI20y8YOuUhc4z/aahbN0e%2bsbUx6tcB5XUkLGTwj6Z50Na3t3VJb51huLWSOZGDmVHMnPOApzj07VQkYdSRNBjhBBBuOP9M5p/7XMLaJC0AABjB5Vzc1p4emoznEqycJX0IPOuhtgKRtuHP4P4oFPLtyztdO95nmHTOKtfZZrlpbbguNEmPHp%2bpp4YDHADgHl%2boyPtQfrvva2gSSTMYHJcmqTTITM3lYhhzBBwRUU%2btryiy1zUFj4FRbt1KqMKOg5famedTghtRI6q0jclHcmufNj38llMbe8zl%2bFwzHJIPQ0cQ6tb65rEWm3E0kMUMZAeI4JYkYPP5UBRdb80mx1VLfVpntZVbr4RMZB6Hj6ferDS9x2OqSSyae5ktxIUDEEeb5A9vnVBJt7S7d1kvpbm4cDhBZFcHnn8NC%2b9GtdqJBqdhcXQmZmKxMQEI4epGOucVUKHc00T67qBi5Rm9lIA9OM10HsR1k25EydClczScUirK5Jd34mPqSeddMezdAu14PyUC63Ztq1g0iSRZy0ijkCag%2bzD2b6puCNr%2b6VrLSe0zr5pfyL3%2bvT609NvbEtlRZ9dRLmXkVgzlF%2bvr/AIoxuAsdqygKiAYAAwAP4oEpvjaK29xavYq0amFVjdfiVkHD%2b4x9qWslxqmmalbyywNwwHHFGMBh/wA9a6P1S70rUoktLXUbKW%2bjPiJCkyliB1wM8%2bWaG9Q28J%2bYjAPcYqAS0vfsLKiytJ4mMZUEnPpirvTtqRb80q5m1d57MO39NwEEgfiYHr6Yqbb7baNQEVRKeSkL0NF2g2VxZWFrb2fhEokcbNJnGB8R5d/SgSuo%2bxPWbG6jEM8V/YA544xwyL9VP8GmHtS3On6Q9tIrK0QK4YYNM5B1B6itN1bQ3EbLPGrgjGe/3qiSo8vzrReW8V3A8FwgeKRSrKehHpW2CUSIGHf9q9PU0A5d7U02WOLwLaKCaBg8EsaANEw6EVivv1u3BqFusydriAf7L2/SiUV4elBVWcceTK/IDkuR3NTrSDwY1GST6msoVVmdgOYYj6VvFB8R5s1i3T6VsNRZpCJApIDH4Seh%2bVB//9k=' /%3e%3c/svg%3e"},"path":"/author/joris-heus/"}]}},{"node":{"id":"9fa5860841574d8a1b255a86a32ef392","title":"Monendo decimo referunt supremum","image":{"type":"image","mimeType":"image/jpeg","src":"/assets/static/qingbao-meng-01_igFr7hd4-unsplash.4250cd3.dcc9fafb1532f74768d34a5075c265b5.jpg","size":{"width":800,"height":477},"sizes":"(max-width: 800px) 100vw, 800px","srcset":["/assets/static/qingbao-meng-01_igFr7hd4-unsplash.1b91758.dcc9fafb1532f74768d34a5075c265b5.jpg 480w","/assets/static/qingbao-meng-01_igFr7hd4-unsplash.4250cd3.dcc9fafb1532f74768d34a5075c265b5.jpg 800w"],"dataUri":"data:image/svg+xml,%3csvg fill='none' viewBox='0 0 800 477' xmlns='http://www.w3.org/2000/svg' xmlns:xlink='http://www.w3.org/1999/xlink'%3e%3cdefs%3e%3cfilter id='__svg-blur-78e5e20c5b6a43017bf737db2285ffaa'%3e%3cfeGaussianBlur in='SourceGraphic' stdDeviation='40'/%3e%3c/filter%3e%3c/defs%3e%3cimage x='0' y='0' filter='url(%23__svg-blur-78e5e20c5b6a43017bf737db2285ffaa)' width='800' height='477' xlink:href='data:image/jpeg%3bbase64%2c/9j/2wBDAAYEBQYFBAYGBQYHBwYIChAKCgkJChQODwwQFxQYGBcUFhYaHSUfGhsjHBYWICwgIyYnKSopGR8tMC0oMCUoKSj/2wBDAQcHBwoIChMKChMoGhYaKCgoKCgoKCgoKCgoKCgoKCgoKCgoKCgoKCgoKCgoKCgoKCgoKCgoKCgoKCgoKCgoKCj/wAARCAAmAEADASIAAhEBAxEB/8QAGgAAAQUBAAAAAAAAAAAAAAAABgADBAUHAv/EAC8QAAIBAwIDBwMEAwAAAAAAAAECAwAEEQUSEyExFCJBUWFxgQYysSVCkaFSYsH/xAAYAQADAQEAAAAAAAAAAAAAAAABAgQDAP/EACYRAAIBAwIFBQEAAAAAAAAAAAABAgMREiGhMUFxwfAEBSIyYYH/2gAMAwEAAhEDEQA/AImkfUcaLmQImBnm43D0C881ZQ6/DcSGS1t1uZiQO6GLMfLB6VkltPCShAfeeq7gvMVcxTvcRNJbtJEB1GQpI9On8VLOFuZEpGjz6y0FzEmouts5YmQMwJB8BgDNSzq0EBtmtbhHQ8z3cg59/Gs3sbOe/tWa4ljSCLGy5mlCbefiDzIoj02PR4rZIdY16PdGdmy1UnHjgswH4I9alrOMdG/4h0wph1scY9lijSYoRxJTuZgf8T0HxXa3HCUu/EUkck3Yzn8/ih3tOjWmey3jXKDJCOQceJJAHP8AFUF19WyXNrNHaCO3tlXOVXDMT5k%2b3SupSy%2biNVJcw2n1NZ24zXCKyNgKMkD5A73xVTe3Fw2TaQStuGOMYSoA/wBc9KHdN%2bqbhjxLm5fhKgDr13DPQ1Kmv47mGSV5ZjbxnKrI2QM%2bfrWrc07NBVr3AWKew4CcCbT55go7s8bRsPnoalC4NxCBNZWJUfaEnbI%2bA2B/FZ9JKkYwGAPkvOn7O%2bgiQ8VZi3mGA/5RdJvXJ%2bdLCqmjQ4OG6n9NhnIXaMzbcDyGXrqeW0Y8Cf6bkimwFWSK4ZQB6kkqaD7a4tZIi7tIUUfZkbj/ACKetzpaxcKc30Zx96hH2%2buMCp50pJ3u9%2b0g4JF%2bbTBkRboQowwMzxSYHkcMPxUe70fVLOxaQwmW1J38aHvr846fNQIoNF2qJdY7ijO3sjhyfXnipC63oFpG0MMmqtnq1vIIgT5nIOa5V6sX8dfzFrfTuDBDVqSsQkd1GTlVNOXGo75%2bAsh4UKFiB%2b5qb7dbcRZHkubqAHIS6jXd7blOabv7rQbnd2axurCXH3RScVc%2beDg/3Va9Twyi/N9jsWgLjKj9vOrHTbE307Rs4RUQuSBnl6DzpUqebsjRMfeSxtpAi2srlDzZpsZPsBU6zk0y5kxLFeRM3ikit/RFKlUde8YOSevURydy4f6OmlspLuwu45IwCSs6FDj3GaA4oSs7cY52nmFNKlWfttepWhJzdw8QgsbhWRWKdR7muZry8kLLFcyoOeAJCMY9qVKrXFPihz//2Q==' /%3e%3c/svg%3e"},"path":"/posts/monendo-decimo-referunt-supremum/","timeToRead":1,"featured":true,"humanTime":"28 Jun 2019","datetime":"2019-06-28T00:00:00.000Z","category":{"id":"Digital","title":"Digital","path":"/category/digital/"},"author":[{"id":"jorisheus","name":"Joris Heus","image":{"type":"image","mimeType":"image/jpeg","src":"/assets/static/jorisheus.dea1acb.5b6df044254e688965fd43af7b35308a.jpg","size":{"width":64,"height":64},"sizes":"(max-width: 64px) 100vw, 64px","srcset":["/assets/static/jorisheus.dea1acb.5b6df044254e688965fd43af7b35308a.jpg 64w"],"dataUri":"data:image/svg+xml,%3csvg fill='none' viewBox='0 0 64 64' xmlns='http://www.w3.org/2000/svg' xmlns:xlink='http://www.w3.org/1999/xlink'%3e%3cdefs%3e%3cfilter id='__svg-blur-83558f8db613ebb06851a0caedeef613'%3e%3cfeGaussianBlur in='SourceGraphic' stdDeviation='40'/%3e%3c/filter%3e%3c/defs%3e%3cimage x='0' y='0' filter='url(%23__svg-blur-83558f8db613ebb06851a0caedeef613)' width='64' height='64' xlink:href='data:image/jpeg%3bbase64%2c/9j/2wBDAAYEBQYFBAYGBQYHBwYIChAKCgkJChQODwwQFxQYGBcUFhYaHSUfGhsjHBYWICwgIyYnKSopGR8tMC0oMCUoKSj/2wBDAQcHBwoIChMKChMoGhYaKCgoKCgoKCgoKCgoKCgoKCgoKCgoKCgoKCgoKCgoKCgoKCgoKCgoKCgoKCgoKCgoKCj/wAARCABAAEADASIAAhEBAxEB/8QAHAAAAgIDAQEAAAAAAAAAAAAABgcEBQIDCAEA/8QAMhAAAgEDAgQDBgUFAAAAAAAAAQIDAAQRBQYSITFBEyJRBxQyYXGRUnKBocEkYrGy0f/EABUBAQEAAAAAAAAAAAAAAAAAAAAB/8QAFBEBAAAAAAAAAAAAAAAAAAAAAP/aAAwDAQACEQMRAD8Ak%2b1/XNum3j9wkt3uQRloAOf2pMTao8qGCKYmOWVWZc9xnFDUchDebLA/Ojja20YNUsVvZJ7iJQ%2bDJHFxpH38/PIHzGfWoGJtPUHlhjjl5DAB9KZenKOFSTgUr9kWzTW00KcJmidoweoyDjr6VcT2u5pYLuOOC0YquEeadgXOemF%2bGgZrOnDjioc3QI20y8YOuUhc4z/aahbN0e%2bsbUx6tcB5XUkLGTwj6Z50Na3t3VJb51huLWSOZGDmVHMnPOApzj07VQkYdSRNBjhBBBuOP9M5p/7XMLaJC0AABjB5Vzc1p4emoznEqycJX0IPOuhtgKRtuHP4P4oFPLtyztdO95nmHTOKtfZZrlpbbguNEmPHp%2bpp4YDHADgHl%2boyPtQfrvva2gSSTMYHJcmqTTITM3lYhhzBBwRUU%2btryiy1zUFj4FRbt1KqMKOg5famedTghtRI6q0jclHcmufNj38llMbe8zl%2bFwzHJIPQ0cQ6tb65rEWm3E0kMUMZAeI4JYkYPP5UBRdb80mx1VLfVpntZVbr4RMZB6Hj6ferDS9x2OqSSyae5ktxIUDEEeb5A9vnVBJt7S7d1kvpbm4cDhBZFcHnn8NC%2b9GtdqJBqdhcXQmZmKxMQEI4epGOucVUKHc00T67qBi5Rm9lIA9OM10HsR1k25EydClczScUirK5Jd34mPqSeddMezdAu14PyUC63Ztq1g0iSRZy0ijkCag%2bzD2b6puCNr%2b6VrLSe0zr5pfyL3%2bvT609NvbEtlRZ9dRLmXkVgzlF%2bvr/AIoxuAsdqygKiAYAAwAP4oEpvjaK29xavYq0amFVjdfiVkHD%2b4x9qWslxqmmalbyywNwwHHFGMBh/wA9a6P1S70rUoktLXUbKW%2bjPiJCkyliB1wM8%2bWaG9Q28J%2bYjAPcYqAS0vfsLKiytJ4mMZUEnPpirvTtqRb80q5m1d57MO39NwEEgfiYHr6Yqbb7baNQEVRKeSkL0NF2g2VxZWFrb2fhEokcbNJnGB8R5d/SgSuo%2bxPWbG6jEM8V/YA544xwyL9VP8GmHtS3On6Q9tIrK0QK4YYNM5B1B6itN1bQ3EbLPGrgjGe/3qiSo8vzrReW8V3A8FwgeKRSrKehHpW2CUSIGHf9q9PU0A5d7U02WOLwLaKCaBg8EsaANEw6EVivv1u3BqFusydriAf7L2/SiUV4elBVWcceTK/IDkuR3NTrSDwY1GST6msoVVmdgOYYj6VvFB8R5s1i3T6VsNRZpCJApIDH4Seh%2bVB//9k=' /%3e%3c/svg%3e"},"path":"/author/joris-heus/"}]}}]}}},"context":{}}