{"hash":"4931fa168c3524a2f436d2eaa9396372f3e07a58","data":{"tag":{"title":"tag1","path":"/tags/tag1/","belongsTo":{"totalCount":4,"pageInfo":{"totalPages":2,"currentPage":2},"edges":[{"node":{"id":"a1be9889a6c51624500fd8931fde26d7","title":"Cunctas non toxea inpatiens in virorum surdaeque","image":{"type":"image","mimeType":"image/jpeg","src":"/assets/static/sergio-souza-mvb51ThjvRA-unsplash.4250cd3.21c81be30c0705f173d0a2b3e99d5aff.jpg","size":{"width":800,"height":450},"sizes":"(max-width: 800px) 100vw, 800px","srcset":["/assets/static/sergio-souza-mvb51ThjvRA-unsplash.1b91758.21c81be30c0705f173d0a2b3e99d5aff.jpg 480w","/assets/static/sergio-souza-mvb51ThjvRA-unsplash.4250cd3.21c81be30c0705f173d0a2b3e99d5aff.jpg 800w"],"dataUri":"data:image/svg+xml,%3csvg fill='none' viewBox='0 0 800 450' xmlns='http://www.w3.org/2000/svg' xmlns:xlink='http://www.w3.org/1999/xlink'%3e%3cdefs%3e%3cfilter id='__svg-blur-f01982a1c32d42246db5b85a4f3488f9'%3e%3cfeGaussianBlur in='SourceGraphic' stdDeviation='40'/%3e%3c/filter%3e%3c/defs%3e%3cimage x='0' y='0' filter='url(%23__svg-blur-f01982a1c32d42246db5b85a4f3488f9)' width='800' height='450' xlink:href='data:image/jpeg%3bbase64%2c/9j/2wBDAAYEBQYFBAYGBQYHBwYIChAKCgkJChQODwwQFxQYGBcUFhYaHSUfGhsjHBYWICwgIyYnKSopGR8tMC0oMCUoKSj/2wBDAQcHBwoIChMKChMoGhYaKCgoKCgoKCgoKCgoKCgoKCgoKCgoKCgoKCgoKCgoKCgoKCgoKCgoKCgoKCgoKCgoKCj/wAARCAAkAEADASIAAhEBAxEB/8QAGwAAAQUBAQAAAAAAAAAAAAAAAAEDBAUGAgf/xAAzEAACAQMDAgQDBQkAAAAAAAABAgMABBEFEiExQQYTUWEiI3EUFlKRoTIzQmKBkrHB8P/EABcBAQEBAQAAAAAAAAAAAAAAAAMEAgX/xAAiEQACAgECBwEAAAAAAAAAAAAAAQIDEQQSISIjMkFRYRP/2gAMAwEAAhEDEQA/AMHDrciYwCSfTPFWWk6pqd5MRHLGvtINo/OqCOWCFfgTzCSAM8CpSai4MgiAj/hGw/7NT2Rj4Q1cpZ4mtub3U7aJWaa0Qfi83PPsKZ%2b808cfzJDIw7ocD9ayk11FuJeR5vh4JJwSfc1wuyS3AkaMBxhRuI5Hc4qf815Kd78GjPi2c/vLgxgdFADGoNz4quTIGhmumPcs4UfkKoZNNVRHunVHZN%2b1jzz0GMdaYmsTDIym8gJB7t/k1tV1mHZYbC38QXV0vyrpkk/AwGT9D3qXFrN1HIUu5ZWP8pCkfrXn4mWF8CRH9wTipjawzpuk8t2Axlhz7dDRy0/pG43%2b2ZxLqZekr/3VLj1KYIQ4SQE7juHfGKq6UGug4pkKk0aSyuEuoyBvjihAc4AJ9D1/4UkO24uUDlkAODtVdoGfr0FVejXBh1CAlsKWCsCeCDxz7VZHel7DGVilYtgYUDv60ElhseLzFE7xFKDqs5B3xKQikR5VVwAME/0ri%2be3iMP2hY2MsQ3/AAkHrg8j9k8dMGk11mk1NwLdJPMAYfKJHTBxg9Pemp72G1tMSQQxXBJ%2bX5eTtJ75%2bn1oY52xHljdNsZv9FdHQ2En2iOUb4wCNxX1qqmiuIDiWJ0I7EU/Nq8stv5TpGSH3LJjDAenHahtYuJQwuMTBgFO7uB0Bx6VRBWJcxPN1t8vAqhSjrRRTAHSMyMGU4IOQa0ulW0YdZgDvSbYPTGcUUUV3axae5B4suXj1uUR4jAXI2ZGOMVmpHaRyzsWYnkk5oorOmXSi/hvVPqyX04zRRRTk5//2Q==' /%3e%3c/svg%3e"},"path":"/posts/cunctas-non-toxea-inpatiens-in-virorum-surdaeque/","timeToRead":2,"featured":false,"humanTime":"03 Sep 2019","datetime":"2019-09-03T00:00:00.000Z","category":{"id":"Health","title":"Health","path":"/category/health/"},"author":[{"id":"jorisheus","name":"Joris Heus","image":{"type":"image","mimeType":"image/jpeg","src":"/assets/static/jorisheus.dea1acb.5b6df044254e688965fd43af7b35308a.jpg","size":{"width":64,"height":64},"sizes":"(max-width: 64px) 100vw, 64px","srcset":["/assets/static/jorisheus.dea1acb.5b6df044254e688965fd43af7b35308a.jpg 64w"],"dataUri":"data:image/svg+xml,%3csvg fill='none' viewBox='0 0 64 64' xmlns='http://www.w3.org/2000/svg' xmlns:xlink='http://www.w3.org/1999/xlink'%3e%3cdefs%3e%3cfilter id='__svg-blur-83558f8db613ebb06851a0caedeef613'%3e%3cfeGaussianBlur in='SourceGraphic' stdDeviation='40'/%3e%3c/filter%3e%3c/defs%3e%3cimage x='0' y='0' filter='url(%23__svg-blur-83558f8db613ebb06851a0caedeef613)' width='64' height='64' xlink:href='data:image/jpeg%3bbase64%2c/9j/2wBDAAYEBQYFBAYGBQYHBwYIChAKCgkJChQODwwQFxQYGBcUFhYaHSUfGhsjHBYWICwgIyYnKSopGR8tMC0oMCUoKSj/2wBDAQcHBwoIChMKChMoGhYaKCgoKCgoKCgoKCgoKCgoKCgoKCgoKCgoKCgoKCgoKCgoKCgoKCgoKCgoKCgoKCgoKCj/wAARCABAAEADASIAAhEBAxEB/8QAHAAAAgIDAQEAAAAAAAAAAAAABgcEBQIDCAEA/8QAMhAAAgEDAgQDBgUFAAAAAAAAAQIDAAQRBQYSITFBEyJRBxQyYXGRUnKBocEkYrGy0f/EABUBAQEAAAAAAAAAAAAAAAAAAAAB/8QAFBEBAAAAAAAAAAAAAAAAAAAAAP/aAAwDAQACEQMRAD8Ak%2b1/XNum3j9wkt3uQRloAOf2pMTao8qGCKYmOWVWZc9xnFDUchDebLA/Ojja20YNUsVvZJ7iJQ%2bDJHFxpH38/PIHzGfWoGJtPUHlhjjl5DAB9KZenKOFSTgUr9kWzTW00KcJmidoweoyDjr6VcT2u5pYLuOOC0YquEeadgXOemF%2bGgZrOnDjioc3QI20y8YOuUhc4z/aahbN0e%2bsbUx6tcB5XUkLGTwj6Z50Na3t3VJb51huLWSOZGDmVHMnPOApzj07VQkYdSRNBjhBBBuOP9M5p/7XMLaJC0AABjB5Vzc1p4emoznEqycJX0IPOuhtgKRtuHP4P4oFPLtyztdO95nmHTOKtfZZrlpbbguNEmPHp%2bpp4YDHADgHl%2boyPtQfrvva2gSSTMYHJcmqTTITM3lYhhzBBwRUU%2btryiy1zUFj4FRbt1KqMKOg5famedTghtRI6q0jclHcmufNj38llMbe8zl%2bFwzHJIPQ0cQ6tb65rEWm3E0kMUMZAeI4JYkYPP5UBRdb80mx1VLfVpntZVbr4RMZB6Hj6ferDS9x2OqSSyae5ktxIUDEEeb5A9vnVBJt7S7d1kvpbm4cDhBZFcHnn8NC%2b9GtdqJBqdhcXQmZmKxMQEI4epGOucVUKHc00T67qBi5Rm9lIA9OM10HsR1k25EydClczScUirK5Jd34mPqSeddMezdAu14PyUC63Ztq1g0iSRZy0ijkCag%2bzD2b6puCNr%2b6VrLSe0zr5pfyL3%2bvT609NvbEtlRZ9dRLmXkVgzlF%2bvr/AIoxuAsdqygKiAYAAwAP4oEpvjaK29xavYq0amFVjdfiVkHD%2b4x9qWslxqmmalbyywNwwHHFGMBh/wA9a6P1S70rUoktLXUbKW%2bjPiJCkyliB1wM8%2bWaG9Q28J%2bYjAPcYqAS0vfsLKiytJ4mMZUEnPpirvTtqRb80q5m1d57MO39NwEEgfiYHr6Yqbb7baNQEVRKeSkL0NF2g2VxZWFrb2fhEokcbNJnGB8R5d/SgSuo%2bxPWbG6jEM8V/YA544xwyL9VP8GmHtS3On6Q9tIrK0QK4YYNM5B1B6itN1bQ3EbLPGrgjGe/3qiSo8vzrReW8V3A8FwgeKRSrKehHpW2CUSIGHf9q9PU0A5d7U02WOLwLaKCaBg8EsaANEw6EVivv1u3BqFusydriAf7L2/SiUV4elBVWcceTK/IDkuR3NTrSDwY1GST6msoVVmdgOYYj6VvFB8R5s1i3T6VsNRZpCJApIDH4Seh%2bVB//9k=' /%3e%3c/svg%3e"},"path":"/author/joris-heus/"}]}}]}}},"context":{}}